magnetisem/data/week_1/circle_R4/zero_state_without_metals.csv

Record Length,2500,Points,-25.79999901E-3,-13.1999998,,Record Length,2500,Points,-25.79999901E-3,-527.999997139E-3,
Sample Interval,19.9999995E-6,s,-25.77999979E-3,-13.1999998,,Sample Interval,19.9999995E-6,s,-25.77999979E-3,-576.000034809E-3,
Trigger Point,1.2900000E3,Samples,-25.75999871E-3,-13.1999998,,Trigger Point,1.2900000E3,Samples,-25.75999871E-3,-527.999997139E-3,
,,,-25.73999949E-3,-13.1999998,,,,,-25.73999949E-3,-560.000002384E-3,
,,,-25.71999840E-3,-13.1999998,,,,,-25.71999840E-3,-544.000029564E-3,
,,,-25.69999918E-3,-13.1999998,,,,,-25.69999918E-3,-544.000029564E-3,
Source,CH1,,-25.67999810E-3,-13.1999998,,Source,CH2,,-25.67999810E-3,-560.000002384E-3,
Vertical Units,Volts,,-25.65999888E-3,-12.8000002,,Vertical Units,Volts,,-25.65999888E-3,-544.000029564E-3,
Vertical Scale,10.0000001,,-25.63999966E-3,-13.1999998,,Vertical Scale,400.00001900E-3,,-25.63999966E-3,-544.000029564E-3,
Vertical Offset,0,,-25.61999857E-3,-13.1999998,,Vertical Offset,0,,-25.61999857E-3,-527.999997139E-3,
Horizontal Units,s,,-25.59999935E-3,-13.1999998,,Horizontal Units,s,,-25.59999935E-3,-592.000007629E-3,
Horizontal Scale,4.99999987E-3,,-25.57999827E-3,-13.1999998,,Horizontal Scale,4.99999987E-3,,-25.57999827E-3,-560.000002384E-3,
Pt Fmt,Y,,-25.55999905E-3,-13.1999998,,Pt Fmt,Y,,-25.55999905E-3,-496.000021696E-3,
Yzero,-240.00000000E-3,,-25.53999983E-3,-12.8000002,,Yzero,-240.00000000E-3,,-25.53999983E-3,-544.000029564E-3,
Probe Atten,10.0000000,,-25.51999874E-3,-12.8000002,,Probe Atten,20.0000000,,-25.51999874E-3,-544.000029564E-3,
,,,-25.49999952E-3,-12.8000002,,,,,-25.49999952E-3,-527.999997139E-3,
Note,TDS 2001C - 10:22:20 AM   02-Nov-22,,-25.47999844E-3,-12.8000002,,Note,TDS 2001C - 10:22:20 AM   02-Nov-22,,-25.47999844E-3,-527.999997139E-3,
,,,-25.45999922E-3,-12.8000002,,,,,-25.45999922E-3,-544.000029564E-3,
,,,-25.43999813E-3,-12.8000002,,,,,-25.43999813E-3,-527.999997139E-3,
,,,-25.41999891E-3,-12.8000002,,,,,-25.41999891E-3,-544.000029564E-3,
,,,-25.39999969E-3,-12.8000002,,,,,-25.39999969E-3,-527.999997139E-3,
,,,-25.37999861E-3,-12.8000002,,,,,-25.37999861E-3,-527.999997139E-3,
,,,-25.35999939E-3,-12.8000002,,,,,-25.35999939E-3,-512.000024319E-3,
,,,-25.33999830E-3,-12.4000006,,,,,-25.33999830E-3,-527.999997139E-3,
,,,-25.31999908E-3,-12.8000002,,,,,-25.31999908E-3,-527.999997139E-3,
,,,-25.29999986E-3,-12.4000006,,,,,-25.29999986E-3,-527.999997139E-3,
,,,-25.27999878E-3,-12.4000006,,,,,-25.27999878E-3,-527.999997139E-3,
,,,-25.25999956E-3,-12.4000006,,,,,-25.25999956E-3,-464.000016451E-3,
,,,-25.23999847E-3,-12.4000006,,,,,-25.23999847E-3,-496.000021696E-3,
,,,-25.21999925E-3,-12.4000006,,,,,-25.21999925E-3,-512.000024319E-3,
,,,-25.19999817E-3,-12.0000000,,,,,-25.19999817E-3,-480.000019073E-3,
,,,-25.17999895E-3,-12.0000000,,,,,-25.17999895E-3,-496.000021696E-3,
,,,-25.15999973E-3,-12.4000006,,,,,-25.15999973E-3,-448.000013828E-3,
,,,-25.13999864E-3,-12.0000000,,,,,-25.13999864E-3,-464.000016451E-3,
,,,-25.11999942E-3,-12.4000006,,,,,-25.11999942E-3,-496.000021696E-3,
,,,-25.09999834E-3,-12.0000000,,,,,-25.09999834E-3,-496.000021696E-3,
,,,-25.07999912E-3,-12.0000000,,,,,-25.07999912E-3,-464.000016451E-3,
,,,-25.05999990E-3,-12.0000000,,,,,-25.05999990E-3,-496.000021696E-3,
,,,-25.03999881E-3,-12.0000000,,,,,-25.03999881E-3,-496.000021696E-3,
,,,-25.01999959E-3,-12.0000000,,,,,-25.01999959E-3,-496.000021696E-3,
,,,-24.99999851E-3,-12.0000000,,,,,-24.99999851E-3,-464.000016451E-3,
,,,-24.97999929E-3,-12.0000000,,,,,-24.97999929E-3,-496.000021696E-3,
,,,-24.95999821E-3,-12.0000000,,,,,-24.95999821E-3,-496.000021696E-3,
,,,-24.93999898E-3,-12.0000000,,,,,-24.93999898E-3,-464.000016451E-3,
,,,-24.91999976E-3,-11.6000004,,,,,-24.91999976E-3,-464.000016451E-3,
,,,-24.89999868E-3,-12.0000000,,,,,-24.89999868E-3,-464.000016451E-3,
,,,-24.87999946E-3,-12.0000000,,,,,-24.87999946E-3,-464.000016451E-3,
,,,-24.85999838E-3,-11.6000004,,,,,-24.85999838E-3,-464.000016451E-3,
,,,-24.83999915E-3,-11.6000004,,,,,-24.83999915E-3,-448.000013828E-3,
,,,-24.81999993E-3,-11.6000004,,,,,-24.81999993E-3,-448.000013828E-3,
,,,-24.79999885E-3,-11.6000004,,,,,-24.79999885E-3,-480.000019073E-3,
,,,-24.77999963E-3,-11.6000004,,,,,-24.77999963E-3,-464.000016451E-3,
,,,-24.75999855E-3,-11.6000004,,,,,-24.75999855E-3,-432.000011206E-3,
,,,-24.73999932E-3,-11.6000004,,,,,-24.73999932E-3,-464.000016451E-3,
,,,-24.71999824E-3,-11.1999998,,,,,-24.71999824E-3,-448.000013828E-3,
,,,-24.69999902E-3,-11.1999998,,,,,-24.69999902E-3,-400.00000596E-3,
,,,-24.67999980E-3,-11.1999998,,,,,-24.67999980E-3,-464.000016451E-3,
,,,-24.65999871E-3,-11.1999998,,,,,-24.65999871E-3,-448.000013828E-3,
,,,-24.63999949E-3,-11.1999998,,,,,-24.63999949E-3,-464.000016451E-3,
,,,-24.61999841E-3,-10.8000002,,,,,-24.61999841E-3,-464.000016451E-3,
,,,-24.59999919E-3,-10.8000002,,,,,-24.59999919E-3,-464.000016451E-3,
,,,-24.57999997E-3,-10.8000002,,,,,-24.57999997E-3,-400.00000596E-3,
,,,-24.55999888E-3,-10.8000002,,,,,-24.55999888E-3,-432.000011206E-3,
,,,-24.53999966E-3,-10.8000002,,,,,-24.53999966E-3,-448.000013828E-3,
,,,-24.51999858E-3,-10.8000002,,,,,-24.51999858E-3,-416.000008583E-3,
,,,-24.49999936E-3,-10.8000002,,,,,-24.49999936E-3,-432.000011206E-3,
,,,-24.47999828E-3,-10.8000002,,,,,-24.47999828E-3,-400.00000596E-3,
,,,-24.45999905E-3,-10.4000006,,,,,-24.45999905E-3,-448.000013828E-3,
,,,-24.43999983E-3,-10.4000006,,,,,-24.43999983E-3,-400.00000596E-3,
,,,-24.41999875E-3,-10.4000006,,,,,-24.41999875E-3,-400.00000596E-3,
,,,-24.39999953E-3,-10.4000006,,,,,-24.39999953E-3,-368.00003052E-3,
,,,-24.37999845E-3,-10.4000006,,,,,-24.37999845E-3,-416.000008583E-3,
,,,-24.35999922E-3,-10.4000006,,,,,-24.35999922E-3,-400.00000596E-3,
,,,-24.33999814E-3,-10.4000006,,,,,-24.33999814E-3,-384.00000334E-3,
,,,-24.31999892E-3,-10.0000000,,,,,-24.31999892E-3,-384.00000334E-3,
,,,-24.29999970E-3,-10.0000000,,,,,-24.29999970E-3,-384.00000334E-3,
,,,-24.27999862E-3,-10.0000000,,,,,-24.27999862E-3,-368.00003052E-3,
,,,-24.25999939E-3,-10.0000000,,,,,-24.25999939E-3,-368.00003052E-3,
,,,-24.23999831E-3,-10.0000000,,,,,-24.23999831E-3,-368.00003052E-3,
,,,-24.21999909E-3,-10.0000000,,,,,-24.21999909E-3,-336.00002527E-3,
,,,-24.19999987E-3,-9.600000381,,,,,-24.19999987E-3,-400.00000596E-3,
,,,-24.17999879E-3,-9.600000381,,,,,-24.17999879E-3,-352.00002789E-3,
,,,-24.15999956E-3,-9.600000381,,,,,-24.15999956E-3,-384.00000334E-3,
,,,-24.13999848E-3,-9.600000381,,,,,-24.13999848E-3,-368.00003052E-3,
,,,-24.11999926E-3,-9.600000381,,,,,-24.11999926E-3,-368.00003052E-3,
,,,-24.09999818E-3,-9.600000381,,,,,-24.09999818E-3,-368.00003052E-3,
,,,-24.07999896E-3,-9.600000381,,,,,-24.07999896E-3,-336.00002527E-3,
,,,-24.05999973E-3,-9.600000381,,,,,-24.05999973E-3,-368.00003052E-3,
,,,-24.03999865E-3,-9.199999809,,,,,-24.03999865E-3,-320.00002265E-3,
,,,-24.01999943E-3,-9.199999809,,,,,-24.01999943E-3,-368.00003052E-3,
,,,-23.99999835E-3,-9.199999809,,,,,-23.99999835E-3,-352.00002789E-3,
,,,-23.97999913E-3,-9.199999809,,,,,-23.97999913E-3,-368.00003052E-3,
,,,-23.95999990E-3,-9.199999809,,,,,-23.95999990E-3,-336.00002527E-3,
,,,-23.93999882E-3,-9.199999809,,,,,-23.93999882E-3,-304.00002003E-3,
,,,-23.91999960E-3,-8.800000191,,,,,-23.91999960E-3,-304.00002003E-3,
,,,-23.89999852E-3,-8.800000191,,,,,-23.89999852E-3,-320.00002265E-3,
,,,-23.87999929E-3,-8.800000191,,,,,-23.87999929E-3,-320.00002265E-3,
,,,-23.85999821E-3,-8.400000572,,,,,-23.85999821E-3,-368.00003052E-3,
,,,-23.83999899E-3,-8.800000191,,,,,-23.83999899E-3,-304.00002003E-3,
,,,-23.81999977E-3,-8.800000191,,,,,-23.81999977E-3,-304.00002003E-3,
,,,-23.79999869E-3,-8.400000572,,,,,-23.79999869E-3,-304.00002003E-3,
,,,-23.77999946E-3,-8.400000572,,,,,-23.77999946E-3,-336.00002527E-3,
,,,-23.75999838E-3,-8.400000572,,,,,-23.75999838E-3,-320.00002265E-3,
,,,-23.73999916E-3,-8.400000572,,,,,-23.73999916E-3,-320.00002265E-3,
,,,-23.71999994E-3,-8.400000572,,,,,-23.71999994E-3,-304.00002003E-3,
,,,-23.69999886E-3,-8.400000572,,,,,-23.69999886E-3,-304.00002003E-3,
,,,-23.67999963E-3,-8.000000000,,,,,-23.67999963E-3,-304.00002003E-3,
,,,-23.65999855E-3,-8.000000000,,,,,-23.65999855E-3,-288.00001740E-3,
,,,-23.63999933E-3,-8.000000000,,,,,-23.63999933E-3,-320.00002265E-3,
,,,-23.61999825E-3,-8.000000000,,,,,-23.61999825E-3,-272.00001478E-3,
,,,-23.59999903E-3,-8.000000000,,,,,-23.59999903E-3,-288.00001740E-3,
,,,-23.57999980E-3,-8.000000000,,,,,-23.57999980E-3,-288.00001740E-3,
,,,-23.55999872E-3,-7.599999905,,,,,-23.55999872E-3,-272.00001478E-3,
,,,-23.53999950E-3,-7.599999905,,,,,-23.53999950E-3,-288.00001740E-3,
,,,-23.51999842E-3,-7.20000029,,,,,-23.51999842E-3,-256.00001216E-3,
,,,-23.49999920E-3,-7.599999905,,,,,-23.49999920E-3,-256.00001216E-3,
,,,-23.47999997E-3,-7.20000029,,,,,-23.47999997E-3,-288.00001740E-3,
,,,-23.45999889E-3,-7.20000029,,,,,-23.45999889E-3,-272.00001478E-3,
,,,-23.43999967E-3,-7.20000029,,,,,-23.43999967E-3,-224.00000691E-3,
,,,-23.41999859E-3,-7.20000029,,,,,-23.41999859E-3,-224.00000691E-3,
,,,-23.39999937E-3,-7.20000029,,,,,-23.39999937E-3,-256.00001216E-3,
,,,-23.37999828E-3,-7.20000029,,,,,-23.37999828E-3,-240.00000954E-3,
,,,-23.35999906E-3,-6.80000019,,,,,-23.35999906E-3,-208.00000429E-3,
,,,-23.33999984E-3,-7.20000029,,,,,-23.33999984E-3,-256.00001216E-3,
,,,-23.31999876E-3,-6.80000019,,,,,-23.31999876E-3,-240.00000954E-3,
,,,-23.29999954E-3,-6.80000019,,,,,-23.29999954E-3,-256.00001216E-3,
,,,-23.27999845E-3,-6.80000019,,,,,-23.27999845E-3,-208.00000429E-3,
,,,-23.25999923E-3,-6.80000019,,,,,-23.25999923E-3,-208.00000429E-3,
,,,-23.24000001E-3,-6.80000019,,,,,-23.24000001E-3,-240.00000954E-3,
,,,-23.21999893E-3,-6.40000010,,,,,-23.21999893E-3,-208.00000429E-3,
,,,-23.19999970E-3,-6.40000010,,,,,-23.19999970E-3,-192.00000167E-3,
,,,-23.17999862E-3,-6.40000010,,,,,-23.17999862E-3,-208.00000429E-3,
,,,-23.15999940E-3,-6.40000010,,,,,-23.15999940E-3,-224.00000691E-3,
,,,-23.13999832E-3,-6.00000000,,,,,-23.13999832E-3,-160.00001132E-3,
,,,-23.11999910E-3,-6.00000000,,,,,-23.11999910E-3,-224.00000691E-3,
,,,-23.09999987E-3,-6.00000000,,,,,-23.09999987E-3,-192.00000167E-3,
,,,-23.07999879E-3,-6.00000000,,,,,-23.07999879E-3,-176.00001395E-3,
,,,-23.05999957E-3,-6.00000000,,,,,-23.05999957E-3,-224.00000691E-3,
,,,-23.03999849E-3,-6.00000000,,,,,-23.03999849E-3,-160.00001132E-3,
,,,-23.01999927E-3,-5.59999990,,,,,-23.01999927E-3,-208.00000429E-3,
,,,-22.99999818E-3,-5.59999990,,,,,-22.99999818E-3,-192.00000167E-3,
,,,-22.97999896E-3,-5.59999990,,,,,-22.97999896E-3,-176.00001395E-3,
,,,-22.95999974E-3,-5.20000029,,,,,-22.95999974E-3,-192.00000167E-3,
,,,-22.93999866E-3,-5.59999990,,,,,-22.93999866E-3,-192.00000167E-3,
,,,-22.91999944E-3,-5.20000029,,,,,-22.91999944E-3,-176.00001395E-3,
,,,-22.89999835E-3,-5.20000029,,,,,-22.89999835E-3,-144.0000087E-3,
,,,-22.87999913E-3,-5.20000029,,,,,-22.87999913E-3,-144.0000087E-3,
,,,-22.85999991E-3,-5.20000029,,,,,-22.85999991E-3,-192.00000167E-3,
,,,-22.83999883E-3,-5.20000029,,,,,-22.83999883E-3,-160.00001132E-3,
,,,-22.81999961E-3,-5.20000029,,,,,-22.81999961E-3,-144.0000087E-3,
,,,-22.79999852E-3,-4.80000019,,,,,-22.79999852E-3,-176.00001395E-3,
,,,-22.77999930E-3,-4.80000019,,,,,-22.77999930E-3,-160.00001132E-3,
,,,-22.75999822E-3,-4.80000019,,,,,-22.75999822E-3,-160.00001132E-3,
,,,-22.73999900E-3,-4.80000019,,,,,-22.73999900E-3,-128.0000061E-3,
,,,-22.71999978E-3,-4.40000010,,,,,-22.71999978E-3,-160.00001132E-3,
,,,-22.69999869E-3,-4.40000010,,,,,-22.69999869E-3,-112.0000035E-3,
,,,-22.67999947E-3,-4.40000010,,,,,-22.67999947E-3,-112.0000035E-3,
,,,-22.65999839E-3,-4.40000010,,,,,-22.65999839E-3,-128.0000061E-3,
,,,-22.63999917E-3,-4.00000000,,,,,-22.63999917E-3,-96.000000834E-3,
,,,-22.61999995E-3,-4.00000000,,,,,-22.61999995E-3,-112.0000035E-3,
,,,-22.59999886E-3,-4.00000000,,,,,-22.59999886E-3,-96.000000834E-3,
,,,-22.57999964E-3,-4.00000000,,,,,-22.57999964E-3,-96.000000834E-3,
,,,-22.55999856E-3,-4.00000000,,,,,-22.55999856E-3,-160.00001132E-3,
,,,-22.53999934E-3,-3.60000014,,,,,-22.53999934E-3,-112.0000035E-3,
,,,-22.51999825E-3,-3.60000014,,,,,-22.51999825E-3,-112.0000035E-3,
,,,-22.49999903E-3,-3.60000014,,,,,-22.49999903E-3,-64.000003040E-3,
,,,-22.47999981E-3,-3.60000014,,,,,-22.47999981E-3,-80.000005662E-3,
,,,-22.45999873E-3,-3.20000005,,,,,-22.45999873E-3,-64.000003040E-3,
,,,-22.43999951E-3,-3.20000005,,,,,-22.43999951E-3,-48.00000042E-3,
,,,-22.41999842E-3,-3.20000005,,,,,-22.41999842E-3,-80.000005662E-3,
,,,-22.39999920E-3,-3.20000005,,,,,-22.39999920E-3,-48.00000042E-3,
,,,-22.37999998E-3,-3.20000005,,,,,-22.37999998E-3,-48.00000042E-3,
,,,-22.35999890E-3,-2.79999995,,,,,-22.35999890E-3,-64.000003040E-3,
,,,-22.33999968E-3,-2.79999995,,,,,-22.33999968E-3,-48.00000042E-3,
,,,-22.31999859E-3,-2.79999995,,,,,-22.31999859E-3,-64.000003040E-3,
,,,-22.29999937E-3,-2.79999995,,,,,-22.29999937E-3,-48.00000042E-3,
,,,-22.27999829E-3,-2.79999995,,,,,-22.27999829E-3,-16.0000008E-3,
,,,-22.25999907E-3,-2.4000001,,,,,-22.25999907E-3,-48.00000042E-3,
,,,-22.23999985E-3,-2.4000001,,,,,-22.23999985E-3,-16.0000008E-3,
,,,-22.21999876E-3,-2.4000001,,,,,-22.21999876E-3,-32.00000152E-3,
,,,-22.19999954E-3,-2.4000001,,,,,-22.19999954E-3,-48.00000042E-3,
,,,-22.17999846E-3,-2.4000001,,,,,-22.17999846E-3,-48.00000042E-3,
,,,-22.15999924E-3,-2.0000000,,,,,-22.15999924E-3,-48.00000042E-3,
,,,-22.14000002E-3,-2.0000000,,,,,-22.14000002E-3,-32.00000152E-3,
,,,-22.11999893E-3,-2.0000000,,,,,-22.11999893E-3,-32.00000152E-3,
,,,-22.09999971E-3,-1.6000000,,,,,-22.09999971E-3,-32.00000152E-3,
,,,-22.07999863E-3,-2.0000000,,,,,-22.07999863E-3,48.00000042E-3,
,,,-22.05999941E-3,-1.6000000,,,,,-22.05999941E-3,-16.0000008E-3,
,,,-22.03999832E-3,-1.6000000,,,,,-22.03999832E-3,16.0000008E-3,
,,,-22.01999910E-3,-1.6000000,,,,,-22.01999910E-3,16.0000008E-3,
,,,-21.99999988E-3,-1.6000000,,,,,-21.99999988E-3,16.0000008E-3,
,,,-21.97999880E-3,-1.2000000,,,,,-21.97999880E-3,32.00000152E-3,
,,,-21.95999958E-3,-1.2000000,,,,,-21.95999958E-3,32.00000152E-3,
,,,-21.93999849E-3,-1.2000000,,,,,-21.93999849E-3,64.000003040E-3,
,,,-21.91999927E-3,-1.2000000,,,,,-21.91999927E-3,16.0000008E-3,
,,,-21.89999819E-3,-800.000011921E-3,,,,,-21.89999819E-3,32.00000152E-3,
,,,-21.87999897E-3,-800.000011921E-3,,,,,-21.87999897E-3,16.0000008E-3,
,,,-21.85999975E-3,-800.000011921E-3,,,,,-21.85999975E-3,16.0000008E-3,
,,,-21.83999866E-3,-800.000011921E-3,,,,,-21.83999866E-3,48.00000042E-3,
,,,-21.81999944E-3,-800.000011921E-3,,,,,-21.81999944E-3,64.000003040E-3,
,,,-21.79999836E-3,-400.00000596E-3,,,,,-21.79999836E-3,32.00000152E-3,
,,,-21.77999914E-3,-400.00000596E-3,,,,,-21.77999914E-3,64.000003040E-3,
,,,-21.75999992E-3,-400.00000596E-3,,,,,-21.75999992E-3,64.000003040E-3,
,,,-21.73999883E-3,-400.00000596E-3,,,,,-21.73999883E-3,80.000005662E-3,
,,,-21.71999961E-3,-400.00000596E-3,,,,,-21.71999961E-3,80.000005662E-3,
,,,-21.69999853E-3,-400.00000596E-3,,,,,-21.69999853E-3,16.0000008E-3,
,,,-21.67999931E-3,0.0,,,,,-21.67999931E-3,64.000003040E-3,
,,,-21.65999822E-3,0.0,,,,,-21.65999822E-3,80.000005662E-3,
,,,-21.63999900E-3,0.0,,,,,-21.63999900E-3,64.000003040E-3,
,,,-21.61999978E-3,0.0,,,,,-21.61999978E-3,80.000005662E-3,
,,,-21.59999870E-3,0.0,,,,,-21.59999870E-3,80.000005662E-3,
,,,-21.57999948E-3,400.00000596E-3,,,,,-21.57999948E-3,112.0000035E-3,
,,,-21.55999839E-3,400.00000596E-3,,,,,-21.55999839E-3,80.000005662E-3,
,,,-21.53999917E-3,400.00000596E-3,,,,,-21.53999917E-3,96.000000834E-3,
,,,-21.51999995E-3,400.00000596E-3,,,,,-21.51999995E-3,64.000003040E-3,
,,,-21.49999887E-3,400.00000596E-3,,,,,-21.49999887E-3,96.000000834E-3,
,,,-21.47999965E-3,800.000011921E-3,,,,,-21.47999965E-3,112.0000035E-3,
,,,-21.45999856E-3,800.000011921E-3,,,,,-21.45999856E-3,96.000000834E-3,
,,,-21.43999934E-3,800.000011921E-3,,,,,-21.43999934E-3,112.0000035E-3,
,,,-21.41999826E-3,800.000011921E-3,,,,,-21.41999826E-3,96.000000834E-3,
,,,-21.39999904E-3,1.2000000,,,,,-21.39999904E-3,128.0000061E-3,
,,,-21.37999982E-3,1.2000000,,,,,-21.37999982E-3,128.0000061E-3,
,,,-21.35999873E-3,1.2000000,,,,,-21.35999873E-3,96.000000834E-3,
,,,-21.33999951E-3,1.2000000,,,,,-21.33999951E-3,160.00001132E-3,
,,,-21.31999843E-3,1.6000000,,,,,-21.31999843E-3,96.000000834E-3,
,,,-21.29999921E-3,1.2000000,,,,,-21.29999921E-3,112.0000035E-3,
,,,-21.27999999E-3,1.6000000,,,,,-21.27999999E-3,160.00001132E-3,
,,,-21.25999890E-3,1.6000000,,,,,-21.25999890E-3,112.0000035E-3,
,,,-21.23999968E-3,2.0000000,,,,,-21.23999968E-3,160.00001132E-3,
,,,-21.21999860E-3,2.0000000,,,,,-21.21999860E-3,144.0000087E-3,
,,,-21.19999938E-3,2.0000000,,,,,-21.19999938E-3,176.00001395E-3,
,,,-21.17999829E-3,2.0000000,,,,,-21.17999829E-3,160.00001132E-3,
,,,-21.15999907E-3,2.4000001,,,,,-21.15999907E-3,128.0000061E-3,
,,,-21.13999985E-3,2.0000000,,,,,-21.13999985E-3,192.00000167E-3,
,,,-21.11999877E-3,2.4000001,,,,,-21.11999877E-3,208.00000429E-3,
,,,-21.09999955E-3,2.0000000,,,,,-21.09999955E-3,192.00000167E-3,
,,,-21.07999846E-3,2.4000001,,,,,-21.07999846E-3,176.00001395E-3,
,,,-21.05999924E-3,2.4000001,,,,,-21.05999924E-3,208.00000429E-3,
,,,-21.04000002E-3,2.79999995,,,,,-21.04000002E-3,176.00001395E-3,
,,,-21.01999894E-3,2.79999995,,,,,-21.01999894E-3,192.00000167E-3,
,,,-20.99999972E-3,2.79999995,,,,,-20.99999972E-3,192.00000167E-3,
,,,-20.97999863E-3,3.20000005,,,,,-20.97999863E-3,176.00001395E-3,
,,,-20.95999941E-3,2.79999995,,,,,-20.95999941E-3,160.00001132E-3,
,,,-20.93999833E-3,3.20000005,,,,,-20.93999833E-3,208.00000429E-3,
,,,-20.91999911E-3,2.79999995,,,,,-20.91999911E-3,192.00000167E-3,
,,,-20.89999989E-3,3.20000005,,,,,-20.89999989E-3,240.00000954E-3,
,,,-20.87999880E-3,3.20000005,,,,,-20.87999880E-3,240.00000954E-3,
,,,-20.85999958E-3,3.20000005,,,,,-20.85999958E-3,240.00000954E-3,
,,,-20.83999850E-3,3.20000005,,,,,-20.83999850E-3,224.00000691E-3,
,,,-20.81999928E-3,3.60000014,,,,,-20.81999928E-3,224.00000691E-3,
,,,-20.80000006E-3,3.60000014,,,,,-20.80000006E-3,224.00000691E-3,
,,,-20.77999897E-3,3.60000014,,,,,-20.77999897E-3,224.00000691E-3,
,,,-20.75999975E-3,3.60000014,,,,,-20.75999975E-3,256.00001216E-3,
,,,-20.73999867E-3,4.00000000,,,,,-20.73999867E-3,272.00001478E-3,
,,,-20.71999945E-3,4.00000000,,,,,-20.71999945E-3,240.00000954E-3,
,,,-20.69999836E-3,4.00000000,,,,,-20.69999836E-3,224.00000691E-3,
,,,-20.67999914E-3,4.40000010,,,,,-20.67999914E-3,240.00000954E-3,
,,,-20.65999992E-3,4.00000000,,,,,-20.65999992E-3,272.00001478E-3,
,,,-20.63999884E-3,4.40000010,,,,,-20.63999884E-3,240.00000954E-3,
,,,-20.61999962E-3,4.40000010,,,,,-20.61999962E-3,272.00001478E-3,
,,,-20.59999853E-3,4.40000010,,,,,-20.59999853E-3,240.00000954E-3,
,,,-20.57999931E-3,4.80000019,,,,,-20.57999931E-3,240.00000954E-3,
,,,-20.55999823E-3,4.80000019,,,,,-20.55999823E-3,288.00001740E-3,
,,,-20.53999901E-3,4.40000010,,,,,-20.53999901E-3,240.00000954E-3,
,,,-20.51999979E-3,4.80000019,,,,,-20.51999979E-3,272.00001478E-3,
,,,-20.49999870E-3,4.80000019,,,,,-20.49999870E-3,288.00001740E-3,
,,,-20.47999948E-3,5.20000029,,,,,-20.47999948E-3,304.00002003E-3,
,,,-20.45999840E-3,4.80000019,,,,,-20.45999840E-3,272.00001478E-3,
,,,-20.43999918E-3,5.20000029,,,,,-20.43999918E-3,320.00002265E-3,
,,,-20.41999996E-3,5.20000029,,,,,-20.41999996E-3,272.00001478E-3,
,,,-20.39999887E-3,5.20000029,,,,,-20.39999887E-3,272.00001478E-3,
,,,-20.37999965E-3,5.20000029,,,,,-20.37999965E-3,320.00002265E-3,
,,,-20.35999857E-3,5.59999990,,,,,-20.35999857E-3,320.00002265E-3,
,,,-20.33999935E-3,5.59999990,,,,,-20.33999935E-3,336.00002527E-3,
,,,-20.31999826E-3,5.59999990,,,,,-20.31999826E-3,304.00002003E-3,
,,,-20.29999904E-3,5.59999990,,,,,-20.29999904E-3,336.00002527E-3,
,,,-20.27999982E-3,5.59999990,,,,,-20.27999982E-3,336.00002527E-3,
,,,-20.25999874E-3,6.00000000,,,,,-20.25999874E-3,320.00002265E-3,
,,,-20.23999952E-3,6.00000000,,,,,-20.23999952E-3,352.00002789E-3,
,,,-20.21999843E-3,6.00000000,,,,,-20.21999843E-3,336.00002527E-3,
,,,-20.19999921E-3,6.00000000,,,,,-20.19999921E-3,304.00002003E-3,
,,,-20.17999999E-3,6.40000010,,,,,-20.17999999E-3,320.00002265E-3,
