magnetisem/data/week2/part3/B4/R2600.csv

Record Length,2500,Points,-49.99999702E-3,-479.999989271E-3,,Record Length,2500,Points,-49.99999702E-3,120.0000048E-3,
Sample Interval,39.99999899E-6,s,-49.95999858E-3,-479.999989271E-3,,Sample Interval,39.99999899E-6,s,-49.95999858E-3,120.0000048E-3,
Trigger Point,1.2500000E3,Samples,-49.91999641E-3,-399.99997616E-3,,Trigger Point,1.2500000E3,Samples,-49.91999641E-3,118.0000082E-3,
,,,-49.87999797E-3,-399.99997616E-3,,,,,-49.87999797E-3,120.0000048E-3,
,,,-49.83999580E-3,-319.99999285E-3,,,,,-49.83999580E-3,120.0000048E-3,
,,,-49.79999736E-3,-319.99999285E-3,,,,,-49.79999736E-3,120.0000048E-3,
Source,CH1,,-49.75999519E-3,-319.99999285E-3,,Source,CH2,,-49.75999519E-3,120.0000048E-3,
Vertical Units,Volts,,-49.71999675E-3,-239.99999464E-3,,Vertical Units,Volts,,-49.71999675E-3,122.0000088E-3,
Vertical Scale,2.0000000,,-49.67999831E-3,-239.99999464E-3,,Vertical Scale,50.00000237E-3,,-49.67999831E-3,120.0000048E-3,
Vertical Offset,0,,-49.63999614E-3,-159.99999642E-3,,Vertical Offset,0,,-49.63999614E-3,118.0000082E-3,
Horizontal Units,s,,-49.59999770E-3,-159.99999642E-3,,Horizontal Units,s,,-49.59999770E-3,120.0000048E-3,
Horizontal Scale,9.999999747E-3,,-49.55999553E-3,-159.99999642E-3,,Horizontal Scale,9.999999747E-3,,-49.55999553E-3,122.0000088E-3,
Pt Fmt,Y,,-49.51999709E-3,-159.99999642E-3,,Pt Fmt,Y,,-49.51999709E-3,124.0000054E-3,
Yzero,80.000000000E-3,,-49.47999865E-3,-79.999998212E-3,,Yzero,-40.00000000E-3,,-49.47999865E-3,120.0000048E-3,
Probe Atten,10.0000000,,-49.43999648E-3,-79.999998212E-3,,Probe Atten,1.000000,,-49.43999648E-3,120.0000048E-3,
,,,-49.39999804E-3,0.0,,,,,-49.39999804E-3,120.0000048E-3,
Note,TBS 1052B-EDU - 9:31:18 AM   09-Nov-22,,-49.35999587E-3,0.0,,Note,TBS 1052B-EDU - 9:31:18 AM   09-Nov-22,,-49.35999587E-3,120.0000048E-3,
,,,-49.31999743E-3,79.999998212E-3,,,,,-49.31999743E-3,120.0000048E-3,
,,,-49.27999526E-3,79.999998212E-3,,,,,-49.27999526E-3,122.0000088E-3,
,,,-49.23999682E-3,159.99999642E-3,,,,,-49.23999682E-3,120.0000048E-3,
,,,-49.19999838E-3,159.99999642E-3,,,,,-49.19999838E-3,122.0000088E-3,
,,,-49.15999621E-3,239.99999464E-3,,,,,-49.15999621E-3,120.0000048E-3,
,,,-49.11999777E-3,239.99999464E-3,,,,,-49.11999777E-3,120.0000048E-3,
,,,-49.07999560E-3,239.99999464E-3,,,,,-49.07999560E-3,120.0000048E-3,
,,,-49.03999716E-3,239.99999464E-3,,,,,-49.03999716E-3,120.0000048E-3,
,,,-48.99999872E-3,319.99999285E-3,,,,,-48.99999872E-3,120.0000048E-3,
,,,-48.95999655E-3,319.99999285E-3,,,,,-48.95999655E-3,120.0000048E-3,
,,,-48.91999811E-3,399.99997616E-3,,,,,-48.91999811E-3,118.0000082E-3,
,,,-48.87999594E-3,479.999989271E-3,,,,,-48.87999594E-3,120.0000048E-3,
,,,-48.83999750E-3,479.999989271E-3,,,,,-48.83999750E-3,118.0000082E-3,
,,,-48.79999533E-3,479.999989271E-3,,,,,-48.79999533E-3,120.0000048E-3,
,,,-48.75999689E-3,479.999989271E-3,,,,,-48.75999689E-3,120.0000048E-3,
,,,-48.71999845E-3,560.000002384E-3,,,,,-48.71999845E-3,118.0000082E-3,
,,,-48.67999628E-3,560.000002384E-3,,,,,-48.67999628E-3,118.0000082E-3,
,,,-48.63999784E-3,639.999985695E-3,,,,,-48.63999784E-3,118.0000082E-3,
,,,-48.59999567E-3,639.999985695E-3,,,,,-48.59999567E-3,116.0000041E-3,
,,,-48.55999723E-3,639.999985695E-3,,,,,-48.55999723E-3,116.0000041E-3,
,,,-48.51999879E-3,719.999969006E-3,,,,,-48.51999879E-3,116.0000041E-3,
,,,-48.47999662E-3,799.999952316E-3,,,,,-48.47999662E-3,116.0000041E-3,
,,,-48.43999818E-3,799.999952316E-3,,,,,-48.43999818E-3,116.0000041E-3,
,,,-48.39999601E-3,799.999952316E-3,,,,,-48.39999601E-3,116.0000041E-3,
,,,-48.35999757E-3,799.999952316E-3,,,,,-48.35999757E-3,114.0000075E-3,
,,,-48.31999540E-3,879.999995232E-3,,,,,-48.31999540E-3,114.0000075E-3,
,,,-48.27999696E-3,879.999995232E-3,,,,,-48.27999696E-3,112.0000035E-3,
,,,-48.23999852E-3,959.999978542E-3,,,,,-48.23999852E-3,114.0000075E-3,
,,,-48.19999635E-3,1.0400000,,,,,-48.19999635E-3,112.0000035E-3,
,,,-48.15999791E-3,959.999978542E-3,,,,,-48.15999791E-3,112.0000035E-3,
,,,-48.11999574E-3,1.0400000,,,,,-48.11999574E-3,110.0000069E-3,
,,,-48.07999730E-3,1.0400000,,,,,-48.07999730E-3,110.0000069E-3,
,,,-48.03999886E-3,1.1200000,,,,,-48.03999886E-3,108.0000028E-3,
,,,-47.99999669E-3,1.1200000,,,,,-47.99999669E-3,110.0000069E-3,
,,,-47.95999825E-3,1.1200000,,,,,-47.95999825E-3,104.0000021E-3,
,,,-47.91999608E-3,1.1999999,,,,,-47.91999608E-3,106.0000062E-3,
,,,-47.87999764E-3,1.1999999,,,,,-47.87999764E-3,108.0000028E-3,
,,,-47.83999547E-3,1.2800000,,,,,-47.83999547E-3,108.0000028E-3,
,,,-47.79999703E-3,1.2800000,,,,,-47.79999703E-3,108.0000028E-3,
,,,-47.75999859E-3,1.2800000,,,,,-47.75999859E-3,106.0000062E-3,
,,,-47.71999642E-3,1.3600000,,,,,-47.71999642E-3,106.0000062E-3,
,,,-47.67999798E-3,1.3600000,,,,,-47.67999798E-3,100.0000015E-3,
,,,-47.63999581E-3,1.4399999,,,,,-47.63999581E-3,102.0000055E-3,
,,,-47.59999737E-3,1.4399999,,,,,-47.59999737E-3,102.0000055E-3,
,,,-47.55999893E-3,1.4399999,,,,,-47.55999893E-3,102.0000055E-3,
,,,-47.51999676E-3,1.5200000,,,,,-47.51999676E-3,100.0000015E-3,
,,,-47.47999832E-3,1.5200000,,,,,-47.47999832E-3,100.0000015E-3,
,,,-47.43999615E-3,1.5200000,,,,,-47.43999615E-3,100.0000015E-3,
,,,-47.39999771E-3,1.5200000,,,,,-47.39999771E-3,98.000004888E-3,
,,,-47.35999554E-3,1.5999999,,,,,-47.35999554E-3,98.000004888E-3,
,,,-47.31999710E-3,1.5999999,,,,,-47.31999710E-3,100.0000015E-3,
,,,-47.27999866E-3,1.6799999,,,,,-47.27999866E-3,98.000004888E-3,
,,,-47.23999649E-3,1.6799999,,,,,-47.23999649E-3,96.000000834E-3,
,,,-47.19999805E-3,1.7600000,,,,,-47.19999805E-3,96.000000834E-3,
,,,-47.15999588E-3,1.7600000,,,,,-47.15999588E-3,94.000004232E-3,
,,,-47.11999744E-3,1.7600000,,,,,-47.11999744E-3,94.000004232E-3,
,,,-47.07999527E-3,1.8399999,,,,,-47.07999527E-3,90.000003576E-3,
,,,-47.03999683E-3,1.8399999,,,,,-47.03999683E-3,94.000004232E-3,
,,,-46.99999839E-3,1.8399999,,,,,-46.99999839E-3,88.000006974E-3,
,,,-46.95999622E-3,1.8399999,,,,,-46.95999622E-3,88.000006974E-3,
,,,-46.91999778E-3,1.9200000,,,,,-46.91999778E-3,88.000006974E-3,
,,,-46.87999561E-3,1.9200000,,,,,-46.87999561E-3,88.000006974E-3,
,,,-46.83999717E-3,1.9200000,,,,,-46.83999717E-3,82.000002265E-3,
,,,-46.79999873E-3,1.9200000,,,,,-46.79999873E-3,84.000006318E-3,
,,,-46.75999656E-3,2.0000000,,,,,-46.75999656E-3,84.000006318E-3,
,,,-46.71999812E-3,2.0000000,,,,,-46.71999812E-3,82.000002265E-3,
,,,-46.67999595E-3,2.0799999,,,,,-46.67999595E-3,82.000002265E-3,
,,,-46.63999751E-3,2.0000000,,,,,-46.63999751E-3,82.000002265E-3,
,,,-46.59999534E-3,2.0799999,,,,,-46.59999534E-3,80.000005662E-3,
,,,-46.55999690E-3,2.0799999,,,,,-46.55999690E-3,80.000005662E-3,
,,,-46.51999846E-3,2.1599998,,,,,-46.51999846E-3,80.000005662E-3,
,,,-46.47999629E-3,2.1599998,,,,,-46.47999629E-3,78.000001609E-3,
,,,-46.43999785E-3,2.1599998,,,,,-46.43999785E-3,72.000004351E-3,
,,,-46.39999568E-3,2.1599998,,,,,-46.39999568E-3,76.000005007E-3,
,,,-46.35999724E-3,2.1599998,,,,,-46.35999724E-3,72.000004351E-3,
,,,-46.31999880E-3,2.2400000,,,,,-46.31999880E-3,70.000000298E-3,
,,,-46.27999663E-3,2.3199999,,,,,-46.27999663E-3,70.000000298E-3,
,,,-46.23999819E-3,2.2400000,,,,,-46.23999819E-3,68.000003695E-3,
,,,-46.19999602E-3,2.3199999,,,,,-46.19999602E-3,68.000003695E-3,
,,,-46.15999758E-3,2.3199999,,,,,-46.15999758E-3,65.999999642E-3,
,,,-46.11999542E-3,2.3199999,,,,,-46.11999542E-3,64.000003040E-3,
,,,-46.07999697E-3,2.3999999,,,,,-46.07999697E-3,62.000002712E-3,
,,,-46.03999853E-3,2.3999999,,,,,-46.03999853E-3,62.000002712E-3,
,,,-45.99999636E-3,2.3999999,,,,,-45.99999636E-3,60.000002384E-3,
,,,-45.95999792E-3,2.3999999,,,,,-45.95999792E-3,58.000002056E-3,
,,,-45.91999575E-3,2.4800000,,,,,-45.91999575E-3,58.000002056E-3,
,,,-45.87999731E-3,2.4800000,,,,,-45.87999731E-3,56.000001729E-3,
,,,-45.83999887E-3,2.4800000,,,,,-45.83999887E-3,56.000001729E-3,
,,,-45.79999670E-3,2.5599999,,,,,-45.79999670E-3,54.00000140E-3,
,,,-45.75999826E-3,2.5599999,,,,,-45.75999826E-3,52.00000107E-3,
,,,-45.71999609E-3,2.5599999,,,,,-45.71999609E-3,58.000002056E-3,
,,,-45.67999765E-3,2.6399999,,,,,-45.67999765E-3,50.00000075E-3,
,,,-45.63999549E-3,2.5599999,,,,,-45.63999549E-3,48.00000042E-3,
,,,-45.59999704E-3,2.5599999,,,,,-45.59999704E-3,46.00000381E-3,
,,,-45.55999860E-3,2.6399999,,,,,-45.55999860E-3,46.00000381E-3,
,,,-45.51999643E-3,2.6399999,,,,,-45.51999643E-3,44.00000349E-3,
,,,-45.47999799E-3,2.6399999,,,,,-45.47999799E-3,42.00000316E-3,
,,,-45.43999583E-3,2.6399999,,,,,-45.43999583E-3,42.00000316E-3,
,,,-45.39999738E-3,2.72000003,,,,,-45.39999738E-3,38.00000250E-3,
,,,-45.35999894E-3,2.72000003,,,,,-45.35999894E-3,38.00000250E-3,
,,,-45.31999677E-3,2.72000003,,,,,-45.31999677E-3,38.00000250E-3,
,,,-45.27999833E-3,2.72000003,,,,,-45.27999833E-3,34.00000185E-3,
,,,-45.23999617E-3,2.72000003,,,,,-45.23999617E-3,32.00000152E-3,
,,,-45.19999772E-3,2.79999995,,,,,-45.19999772E-3,32.00000152E-3,
,,,-45.15999556E-3,2.79999995,,,,,-45.15999556E-3,30.00000119E-3,
,,,-45.11999711E-3,2.79999995,,,,,-45.11999711E-3,30.00000119E-3,
,,,-45.07999867E-3,2.79999995,,,,,-45.07999867E-3,28.00000086E-3,
,,,-45.03999650E-3,2.79999995,,,,,-45.03999650E-3,24.00000021E-3,
,,,-44.99999806E-3,2.79999995,,,,,-44.99999806E-3,24.00000021E-3,
,,,-44.95999590E-3,2.79999995,,,,,-44.95999590E-3,24.00000021E-3,
,,,-44.91999745E-3,2.79999995,,,,,-44.91999745E-3,22.00000174E-3,
,,,-44.87999529E-3,2.87999988,,,,,-44.87999529E-3,20.0000014E-3,
,,,-44.83999684E-3,2.87999988,,,,,-44.83999684E-3,16.0000008E-3,
,,,-44.79999840E-3,2.87999988,,,,,-44.79999840E-3,16.0000008E-3,
,,,-44.75999624E-3,2.87999988,,,,,-44.75999624E-3,16.0000008E-3,
,,,-44.71999779E-3,2.87999988,,,,,-44.71999779E-3,14.0000004E-3,
,,,-44.67999563E-3,2.87999988,,,,,-44.67999563E-3,10.0000007E-3,
,,,-44.63999718E-3,2.87999988,,,,,-44.63999718E-3,10.0000007E-3,
,,,-44.59999874E-3,2.87999988,,,,,-44.59999874E-3,10.0000007E-3,
,,,-44.55999658E-3,2.87999988,,,,,-44.55999658E-3,6.00000005E-3,
,,,-44.51999813E-3,2.87999988,,,,,-44.51999813E-3,6.00000005E-3,
,,,-44.47999597E-3,2.72000003,,,,,-44.47999597E-3,6.00000005E-3,
,,,-44.43999752E-3,2.87999988,,,,,-44.43999752E-3,2.0000001E-3,
,,,-44.39999536E-3,2.87999988,,,,,-44.39999536E-3,0.0,
,,,-44.35999691E-3,2.87999988,,,,,-44.35999691E-3,-2.0000001E-3,
,,,-44.31999847E-3,2.96000004,,,,,-44.31999847E-3,-2.0000001E-3,
,,,-44.27999631E-3,2.96000004,,,,,-44.27999631E-3,-4.00000019E-3,
,,,-44.23999786E-3,2.96000004,,,,,-44.23999786E-3,-4.00000019E-3,
,,,-44.19999570E-3,2.96000004,,,,,-44.19999570E-3,-6.00000005E-3,
,,,-44.15999725E-3,2.96000004,,,,,-44.15999725E-3,-8.000000380E-3,
,,,-44.11999881E-3,2.96000004,,,,,-44.11999881E-3,-12.0000001E-3,
,,,-44.07999665E-3,2.96000004,,,,,-44.07999665E-3,-12.0000001E-3,
,,,-44.03999820E-3,2.96000004,,,,,-44.03999820E-3,-14.0000004E-3,
,,,-43.99999604E-3,2.87999988,,,,,-43.99999604E-3,-16.0000008E-3,
,,,-43.95999759E-3,2.96000004,,,,,-43.95999759E-3,-16.0000008E-3,
,,,-43.91999543E-3,2.87999988,,,,,-43.91999543E-3,-20.0000014E-3,
,,,-43.87999699E-3,2.87999988,,,,,-43.87999699E-3,-22.00000174E-3,
,,,-43.83999854E-3,2.87999988,,,,,-43.83999854E-3,-22.00000174E-3,
,,,-43.79999638E-3,2.87999988,,,,,-43.79999638E-3,-24.00000021E-3,
,,,-43.75999793E-3,2.87999988,,,,,-43.75999793E-3,-34.00000185E-3,
,,,-43.71999577E-3,2.87999988,,,,,-43.71999577E-3,-28.00000086E-3,
,,,-43.67999732E-3,2.87999988,,,,,-43.67999732E-3,-28.00000086E-3,
,,,-43.63999888E-3,2.87999988,,,,,-43.63999888E-3,-30.00000119E-3,
,,,-43.59999672E-3,2.79999995,,,,,-43.59999672E-3,-32.00000152E-3,
,,,-43.55999827E-3,2.87999988,,,,,-43.55999827E-3,-34.00000185E-3,
,,,-43.51999611E-3,2.79999995,,,,,-43.51999611E-3,-34.00000185E-3,
,,,-43.47999766E-3,2.79999995,,,,,-43.47999766E-3,-34.00000185E-3,
,,,-43.43999550E-3,2.79999995,,,,,-43.43999550E-3,-36.00000218E-3,
,,,-43.39999706E-3,2.72000003,,,,,-43.39999706E-3,-42.00000316E-3,
,,,-43.35999861E-3,2.5599999,,,,,-43.35999861E-3,-42.00000316E-3,
,,,-43.31999645E-3,2.72000003,,,,,-43.31999645E-3,-42.00000316E-3,
,,,-43.27999800E-3,2.72000003,,,,,-43.27999800E-3,-44.00000349E-3,
,,,-43.23999584E-3,2.72000003,,,,,-43.23999584E-3,-42.00000316E-3,
,,,-43.19999740E-3,2.72000003,,,,,-43.19999740E-3,-48.00000042E-3,
,,,-43.15999895E-3,2.6399999,,,,,-43.15999895E-3,-48.00000042E-3,
,,,-43.11999679E-3,2.6399999,,,,,-43.11999679E-3,-50.00000075E-3,
,,,-43.07999834E-3,2.6399999,,,,,-43.07999834E-3,-54.00000140E-3,
,,,-43.03999618E-3,2.6399999,,,,,-43.03999618E-3,-54.00000140E-3,
,,,-42.99999774E-3,2.6399999,,,,,-42.99999774E-3,-56.000001729E-3,
,,,-42.95999557E-3,2.5599999,,,,,-42.95999557E-3,-56.000001729E-3,
,,,-42.91999713E-3,2.5599999,,,,,-42.91999713E-3,-52.00000107E-3,
,,,-42.87999868E-3,2.5599999,,,,,-42.87999868E-3,-58.000002056E-3,
,,,-42.83999652E-3,2.5599999,,,,,-42.83999652E-3,-60.000002384E-3,
,,,-42.79999807E-3,2.4800000,,,,,-42.79999807E-3,-60.000002384E-3,
,,,-42.75999591E-3,2.4800000,,,,,-42.75999591E-3,-64.000003040E-3,
,,,-42.71999747E-3,2.3999999,,,,,-42.71999747E-3,-64.000003040E-3,
,,,-42.67999902E-3,2.3999999,,,,,-42.67999902E-3,-64.000003040E-3,
,,,-42.63999686E-3,2.3999999,,,,,-42.63999686E-3,-65.999999642E-3,
,,,-42.59999841E-3,2.3199999,,,,,-42.59999841E-3,-68.000003695E-3,
,,,-42.55999625E-3,2.3199999,,,,,-42.55999625E-3,-68.000003695E-3,
,,,-42.51999781E-3,2.6399999,,,,,-42.51999781E-3,-68.000003695E-3,
,,,-42.47999564E-3,2.3199999,,,,,-42.47999564E-3,-72.000004351E-3,
,,,-42.43999720E-3,2.2400000,,,,,-42.43999720E-3,-74.000000954E-3,
,,,-42.39999875E-3,2.2400000,,,,,-42.39999875E-3,-74.000000954E-3,
,,,-42.35999659E-3,2.2400000,,,,,-42.35999659E-3,-76.000005007E-3,
,,,-42.31999815E-3,2.2400000,,,,,-42.31999815E-3,-78.000001609E-3,
,,,-42.27999598E-3,2.1599998,,,,,-42.27999598E-3,-78.000001609E-3,
,,,-42.23999754E-3,2.1599998,,,,,-42.23999754E-3,-82.000002265E-3,
,,,-42.19999537E-3,2.1599998,,,,,-42.19999537E-3,-80.000005662E-3,
,,,-42.15999693E-3,2.0799999,,,,,-42.15999693E-3,-80.000005662E-3,
,,,-42.11999848E-3,2.0799999,,,,,-42.11999848E-3,-84.000006318E-3,
,,,-42.07999632E-3,2.0799999,,,,,-42.07999632E-3,-86.000002921E-3,
,,,-42.03999788E-3,2.0000000,,,,,-42.03999788E-3,-86.000002921E-3,
,,,-41.99999571E-3,2.0000000,,,,,-41.99999571E-3,-86.000002921E-3,
,,,-41.95999727E-3,2.0000000,,,,,-41.95999727E-3,-88.000006974E-3,
,,,-41.91999882E-3,2.0000000,,,,,-41.91999882E-3,-88.000006974E-3,
,,,-41.87999666E-3,1.9200000,,,,,-41.87999666E-3,-90.000003576E-3,
,,,-41.83999822E-3,1.9200000,,,,,-41.83999822E-3,-92.000007629E-3,
,,,-41.79999605E-3,1.8399999,,,,,-41.79999605E-3,-84.000006318E-3,
,,,-41.75999761E-3,1.8399999,,,,,-41.75999761E-3,-94.000004232E-3,
,,,-41.71999544E-3,1.8399999,,,,,-41.71999544E-3,-92.000007629E-3,
,,,-41.67999700E-3,1.7600000,,,,,-41.67999700E-3,-94.000004232E-3,
,,,-41.63999856E-3,1.7600000,,,,,-41.63999856E-3,-96.000000834E-3,
,,,-41.59999639E-3,1.7600000,,,,,-41.59999639E-3,-96.000000834E-3,
,,,-41.55999795E-3,1.6799999,,,,,-41.55999795E-3,-98.000004888E-3,
,,,-41.51999578E-3,1.6799999,,,,,-41.51999578E-3,-100.0000015E-3,
,,,-41.47999734E-3,1.6799999,,,,,-41.47999734E-3,-98.000004888E-3,
,,,-41.43999889E-3,1.6799999,,,,,-41.43999889E-3,-102.0000055E-3,
,,,-41.39999673E-3,1.8399999,,,,,-41.39999673E-3,-100.0000015E-3,
,,,-41.35999829E-3,1.5999999,,,,,-41.35999829E-3,-102.0000055E-3,
,,,-41.31999612E-3,1.5200000,,,,,-41.31999612E-3,-104.0000021E-3,
,,,-41.27999768E-3,1.5200000,,,,,-41.27999768E-3,-104.0000021E-3,
,,,-41.23999551E-3,1.4399999,,,,,-41.23999551E-3,-104.0000021E-3,
,,,-41.19999707E-3,1.4399999,,,,,-41.19999707E-3,-106.0000062E-3,
,,,-41.15999863E-3,1.4399999,,,,,-41.15999863E-3,-108.0000028E-3,
,,,-41.11999646E-3,1.3600000,,,,,-41.11999646E-3,-106.0000062E-3,
,,,-41.07999802E-3,1.3600000,,,,,-41.07999802E-3,-106.0000062E-3,
,,,-41.03999585E-3,1.2800000,,,,,-41.03999585E-3,-108.0000028E-3,
,,,-40.99999741E-3,1.2800000,,,,,-40.99999741E-3,-110.0000069E-3,
,,,-40.95999897E-3,1.2800000,,,,,-40.95999897E-3,-114.0000075E-3,
,,,-40.91999680E-3,1.1999999,,,,,-40.91999680E-3,-110.0000069E-3,
,,,-40.87999836E-3,1.1999999,,,,,-40.87999836E-3,-112.0000035E-3,
,,,-40.83999619E-3,1.1200000,,,,,-40.83999619E-3,-112.0000035E-3,
,,,-40.79999775E-3,1.1200000,,,,,-40.79999775E-3,-112.0000035E-3,
,,,-40.75999558E-3,1.1200000,,,,,-40.75999558E-3,-114.0000075E-3,
,,,-40.71999714E-3,1.1200000,,,,,-40.71999714E-3,-114.0000075E-3,
,,,-40.67999870E-3,1.0400000,,,,,-40.67999870E-3,-106.0000062E-3,
,,,-40.63999653E-3,1.0400000,,,,,-40.63999653E-3,-114.0000075E-3,
,,,-40.59999809E-3,959.999978542E-3,,,,,-40.59999809E-3,-114.0000075E-3,
,,,-40.55999592E-3,879.999995232E-3,,,,,-40.55999592E-3,-116.0000041E-3,
,,,-40.51999748E-3,959.999978542E-3,,,,,-40.51999748E-3,-118.0000082E-3,
,,,-40.47999904E-3,879.999995232E-3,,,,,-40.47999904E-3,-118.0000082E-3,
,,,-40.43999687E-3,799.999952316E-3,,,,,-40.43999687E-3,-118.0000082E-3,
,,,-40.39999843E-3,799.999952316E-3,,,,,-40.39999843E-3,-118.0000082E-3,
,,,-40.35999626E-3,799.999952316E-3,,,,,-40.35999626E-3,-118.0000082E-3,
,,,-40.31999782E-3,799.999952316E-3,,,,,-40.31999782E-3,-118.0000082E-3,
,,,-40.27999565E-3,560.000002384E-3,,,,,-40.27999565E-3,-122.0000088E-3,
,,,-40.23999721E-3,639.999985695E-3,,,,,-40.23999721E-3,-118.0000082E-3,
,,,-40.19999877E-3,719.999969006E-3,,,,,-40.19999877E-3,-120.0000048E-3,
,,,-40.15999660E-3,639.999985695E-3,,,,,-40.15999660E-3,-120.0000048E-3,
,,,-40.11999816E-3,639.999985695E-3,,,,,-40.11999816E-3,-120.0000048E-3,
,,,-40.07999599E-3,560.000002384E-3,,,,,-40.07999599E-3,-120.0000048E-3,
,,,-40.03999755E-3,560.000002384E-3,,,,,-40.03999755E-3,-122.0000088E-3,
,,,-39.99999911E-3,479.999989271E-3,,,,,-39.99999911E-3,-122.0000088E-3,
,,,-39.95999694E-3,479.999989271E-3,,,,,-39.95999694E-3,-120.0000048E-3,
,,,-39.91999850E-3,479.999989271E-3,,,,,-39.91999850E-3,-122.0000088E-3,
,,,-39.87999633E-3,399.99997616E-3,,,,,-39.87999633E-3,-122.0000088E-3,
,,,-39.83999789E-3,399.99997616E-3,,,,,-39.83999789E-3,-130.0000101E-3,
,,,-39.79999572E-3,399.99997616E-3,,,,,-39.79999572E-3,-122.0000088E-3,
,,,-39.75999728E-3,319.99999285E-3,,,,,-39.75999728E-3,-120.0000048E-3,
,,,-39.71999884E-3,319.99999285E-3,,,,,-39.71999884E-3,-122.0000088E-3,
,,,-39.67999667E-3,239.99999464E-3,,,,,-39.67999667E-3,-122.0000088E-3,
,,,-39.63999823E-3,239.99999464E-3,,,,,-39.63999823E-3,-122.0000088E-3,
,,,-39.59999606E-3,239.99999464E-3,,,,,-39.59999606E-3,-122.0000088E-3,
,,,-39.55999762E-3,159.99999642E-3,,,,,-39.55999762E-3,-124.0000054E-3,
,,,-39.51999545E-3,159.99999642E-3,,,,,-39.51999545E-3,-124.0000054E-3,
,,,-39.47999701E-3,79.999998212E-3,,,,,-39.47999701E-3,-122.0000088E-3,
,,,-39.43999857E-3,-79.999998212E-3,,,,,-39.43999857E-3,-124.0000054E-3,
,,,-39.39999640E-3,0.0,,,,,-39.39999640E-3,-122.0000088E-3,
,,,-39.35999796E-3,0.0,,,,,-39.35999796E-3,-120.0000048E-3,
,,,-39.31999579E-3,-79.999998212E-3,,,,,-39.31999579E-3,-124.0000054E-3,
,,,-39.27999735E-3,-79.999998212E-3,,,,,-39.27999735E-3,-120.0000048E-3,
,,,-39.23999891E-3,-159.99999642E-3,,,,,-39.23999891E-3,-122.0000088E-3,
,,,-39.19999674E-3,-159.99999642E-3,,,,,-39.19999674E-3,-122.0000088E-3,
,,,-39.15999830E-3,-159.99999642E-3,,,,,-39.15999830E-3,-122.0000088E-3,
,,,-39.11999613E-3,-239.99999464E-3,,,,,-39.11999613E-3,-122.0000088E-3,
,,,-39.07999769E-3,-239.99999464E-3,,,,,-39.07999769E-3,-122.0000088E-3,
,,,-39.03999552E-3,-319.99999285E-3,,,,,-39.03999552E-3,-120.0000048E-3,
,,,-38.99999708E-3,-319.99999285E-3,,,,,-38.99999708E-3,-120.0000048E-3,
,,,-38.95999864E-3,-399.99997616E-3,,,,,-38.95999864E-3,-120.0000048E-3,
,,,-38.91999647E-3,-399.99997616E-3,,,,,-38.91999647E-3,-120.0000048E-3,
,,,-38.87999803E-3,-399.99997616E-3,,,,,-38.87999803E-3,-120.0000048E-3,
,,,-38.83999586E-3,-399.99997616E-3,,,,,-38.83999586E-3,-120.0000048E-3,
,,,-38.79999742E-3,-479.999989271E-3,,,,,-38.79999742E-3,-120.0000048E-3,
,,,-38.75999898E-3,-479.999989271E-3,,,,,-38.75999898E-3,-118.0000082E-3,
,,,-38.71999681E-3,-560.000002384E-3,,,,,-38.71999681E-3,-126.0000020E-3,
,,,-38.67999837E-3,-560.000002384E-3,,,,,-38.67999837E-3,-118.0000082E-3,
,,,-38.63999620E-3,-639.999985695E-3,,,,,-38.63999620E-3,-118.0000082E-3,
