magnetisem/extension2/high_freq/152710.csv

Record Length,2500,Points,-49.99999874E-6,3.19999992E-3,,Record Length,2500,Points,-49.99999874E-6,3.40000010,
Sample Interval,39.99999976E-9,s,-49.95999916E-6,2.79999990E-3,,Sample Interval,39.99999976E-9,s,-49.95999916E-6,3.20000005,
Trigger Point,1.2500000E3,Samples,-49.91999958E-6,3.59999994E-3,,Trigger Point,1.2500000E3,Samples,-49.91999958E-6,3.00000000,
,,,-49.88000001E-6,3.59999994E-3,,,,,-49.88000001E-6,2.79999995,
,,,-49.84000043E-6,3.59999994E-3,,,,,-49.84000043E-6,2.6000001,
,,,-49.79999721E-6,3.99999972E-3,,,,,-49.79999721E-6,2.6000001,
Source,CH1,,-49.75999764E-6,3.99999972E-3,,Source,CH2,,-49.75999764E-6,2.4000001,
Vertical Units,Volts,,-49.71999806E-6,4.39999998E-3,,Vertical Units,Volts,,-49.71999806E-6,2.2000000,
Vertical Scale,9.999999747E-3,,-49.67999848E-6,4.39999998E-3,,Vertical Scale,5.00000007,,-49.67999848E-6,2.0000000,
Vertical Offset,0,,-49.63999891E-6,3.59999994E-3,,Vertical Offset,0,,-49.63999891E-6,1.8000001,
Horizontal Units,s,,-49.59999933E-6,4.39999998E-3,,Horizontal Units,s,,-49.59999933E-6,1.6000000,
Horizontal Scale,9.999999939E-6,,-49.55999975E-6,4.39999998E-3,,Horizontal Scale,9.999999939E-6,,-49.55999975E-6,1.4000000,
Pt Fmt,Y,,-49.52000018E-6,3.99999972E-3,,Pt Fmt,Y,,-49.52000018E-6,1.4000000,
Yzero,520.000000000E-3,,-49.47999696E-6,4.79999976E-3,,Yzero,0.0,,-49.47999696E-6,1.000000,
Probe Atten,1.000000,,-49.43999738E-6,4.39999998E-3,,Probe Atten,1.000000,,-49.43999738E-6,800.000011921E-3,
,,,-49.39999781E-6,3.99999972E-3,,,,,-49.39999781E-6,600.000023842E-3,
Note,TBS 1052B-EDU - 11:43:51   23-Nov-22,,-49.35999823E-6,4.39999998E-3,,Note,TBS 1052B-EDU - 11:43:51   23-Nov-22,,-49.35999823E-6,600.000023842E-3,
,,,-49.31999865E-6,4.79999976E-3,,,,,-49.31999865E-6,400.00000596E-3,
,,,-49.27999908E-6,4.39999998E-3,,,,,-49.27999908E-6,200.00000298E-3,
,,,-49.23999950E-6,4.79999976E-3,,,,,-49.23999950E-6,0.0,
,,,-49.19999992E-6,4.39999998E-3,,,,,-49.19999992E-6,-200.00000298E-3,
,,,-49.16000034E-6,3.99999972E-3,,,,,-49.16000034E-6,-400.00000596E-3,
,,,-49.11999713E-6,4.39999998E-3,,,,,-49.11999713E-6,-600.000023842E-3,
,,,-49.07999755E-6,4.39999998E-3,,,,,-49.07999755E-6,-800.000011921E-3,
,,,-49.03999798E-6,4.79999976E-3,,,,,-49.03999798E-6,-1.000000,
,,,-48.99999840E-6,3.99999972E-3,,,,,-48.99999840E-6,-1.2000000,
,,,-48.95999882E-6,3.99999972E-3,,,,,-48.95999882E-6,-1.4000000,
,,,-48.91999924E-6,4.39999998E-3,,,,,-48.91999924E-6,-1.6000000,
,,,-48.87999967E-6,3.99999972E-3,,,,,-48.87999967E-6,-1.8000001,
,,,-48.84000009E-6,3.59999994E-3,,,,,-48.84000009E-6,-2.0000000,
,,,-48.80000051E-6,3.59999994E-3,,,,,-48.80000051E-6,-2.2000000,
,,,-48.75999730E-6,3.59999994E-3,,,,,-48.75999730E-6,-2.2000000,
,,,-48.71999772E-6,3.19999992E-3,,,,,-48.71999772E-6,-2.4000001,
,,,-48.67999814E-6,3.19999992E-3,,,,,-48.67999814E-6,-2.6000001,
,,,-48.63999857E-6,3.19999992E-3,,,,,-48.63999857E-6,-2.79999995,
,,,-48.59999899E-6,3.19999992E-3,,,,,-48.59999899E-6,-3.00000000,
,,,-48.55999941E-6,2.3999999E-3,,,,,-48.55999941E-6,-3.00000000,
,,,-48.51999984E-6,2.3999999E-3,,,,,-48.51999984E-6,-3.20000005,
,,,-48.48000026E-6,2.3999999E-3,,,,,-48.48000026E-6,-3.40000010,
,,,-48.43999704E-6,2.3999999E-3,,,,,-48.43999704E-6,-3.60000014,
,,,-48.39999747E-6,1.9999999E-3,,,,,-48.39999747E-6,-3.60000014,
,,,-48.35999789E-6,1.1999999E-3,,,,,-48.35999789E-6,-3.79999995,
,,,-48.31999831E-6,1.6000000E-3,,,,,-48.31999831E-6,-3.79999995,
,,,-48.27999874E-6,1.6000000E-3,,,,,-48.27999874E-6,-4.00000000,
,,,-48.23999916E-6,799.999979790E-6,,,,,-48.23999916E-6,-4.20000029,
,,,-48.19999958E-6,799.999979790E-6,,,,,-48.19999958E-6,-4.20000029,
,,,-48.16000001E-6,399.99998990E-6,,,,,-48.16000001E-6,-4.40000010,
,,,-48.12000043E-6,0.0,,,,,-48.12000043E-6,-4.40000010,
,,,-48.07999721E-6,0.0,,,,,-48.07999721E-6,-4.59999990,
,,,-48.03999764E-6,0.0,,,,,-48.03999764E-6,-4.59999990,
,,,-47.99999806E-6,-799.999979790E-6,,,,,-47.99999806E-6,-4.59999990,
,,,-47.95999848E-6,-799.999979790E-6,,,,,-47.95999848E-6,-4.80000019,
,,,-47.91999891E-6,-1.6000000E-3,,,,,-47.91999891E-6,-4.80000019,
,,,-47.87999933E-6,-1.1999999E-3,,,,,-47.87999933E-6,-4.80000019,
,,,-47.83999975E-6,-1.9999999E-3,,,,,-47.83999975E-6,-4.80000019,
,,,-47.80000017E-6,-2.3999999E-3,,,,,-47.80000017E-6,-5.00000000,
,,,-47.75999696E-6,-1.9999999E-3,,,,,-47.75999696E-6,-5.00000000,
,,,-47.71999738E-6,-2.79999990E-3,,,,,-47.71999738E-6,-5.00000000,
,,,-47.67999781E-6,-3.59999994E-3,,,,,-47.67999781E-6,-5.00000000,
,,,-47.63999823E-6,-2.79999990E-3,,,,,-47.63999823E-6,-5.00000000,
,,,-47.59999865E-6,-3.19999992E-3,,,,,-47.59999865E-6,-5.00000000,
,,,-47.55999908E-6,-3.99999972E-3,,,,,-47.55999908E-6,-5.00000000,
,,,-47.51999950E-6,-3.59999994E-3,,,,,-47.51999950E-6,-5.00000000,
,,,-47.47999992E-6,-3.99999972E-3,,,,,-47.47999992E-6,-5.00000000,
,,,-47.44000034E-6,-4.79999976E-3,,,,,-47.44000034E-6,-5.00000000,
,,,-47.39999713E-6,-4.39999998E-3,,,,,-47.39999713E-6,-5.00000000,
,,,-47.35999755E-6,-5.20000001E-3,,,,,-47.35999755E-6,-4.80000019,
,,,-47.31999798E-6,-5.59999980E-3,,,,,-47.31999798E-6,-4.80000019,
,,,-47.27999840E-6,-5.59999980E-3,,,,,-47.27999840E-6,-4.80000019,
,,,-47.23999882E-6,-6.00000005E-3,,,,,-47.23999882E-6,-4.80000019,
,,,-47.19999924E-6,-6.39999984E-3,,,,,-47.19999924E-6,-4.59999990,
,,,-47.15999967E-6,-6.79999962E-3,,,,,-47.15999967E-6,-4.59999990,
,,,-47.12000009E-6,-6.79999962E-3,,,,,-47.12000009E-6,-4.40000010,
,,,-47.08000051E-6,-6.79999962E-3,,,,,-47.08000051E-6,-4.40000010,
,,,-47.03999730E-6,-7.19999988E-3,,,,,-47.03999730E-6,-4.40000010,
,,,-46.99999772E-6,-7.599999662E-3,,,,,-46.99999772E-6,-4.20000029,
,,,-46.95999814E-6,-7.599999662E-3,,,,,-46.95999814E-6,-4.00000000,
,,,-46.91999857E-6,-7.599999662E-3,,,,,-46.91999857E-6,-4.00000000,
,,,-46.87999899E-6,-7.599999662E-3,,,,,-46.87999899E-6,-3.79999995,
,,,-46.83999941E-6,-8.399999700E-3,,,,,-46.83999941E-6,-3.79999995,
,,,-46.79999984E-6,-8.799999952E-3,,,,,-46.79999984E-6,-3.60000014,
,,,-46.76000026E-6,-8.399999700E-3,,,,,-46.76000026E-6,-3.40000010,
,,,-46.71999704E-6,-9.599999525E-3,,,,,-46.71999704E-6,-3.40000010,
,,,-46.67999747E-6,-8.799999952E-3,,,,,-46.67999747E-6,-3.20000005,
,,,-46.63999789E-6,-8.399999700E-3,,,,,-46.63999789E-6,-3.00000000,
,,,-46.59999831E-6,-9.999999776E-3,,,,,-46.59999831E-6,-2.79999995,
,,,-46.55999874E-6,-9.200000204E-3,,,,,-46.55999874E-6,-2.79999995,
,,,-46.51999916E-6,-9.200000204E-3,,,,,-46.51999916E-6,-2.6000001,
,,,-46.47999958E-6,-10.4000000E-3,,,,,-46.47999958E-6,-2.4000001,
,,,-46.44000001E-6,-9.599999525E-3,,,,,-46.44000001E-6,-2.2000000,
,,,-46.40000043E-6,-9.599999525E-3,,,,,-46.40000043E-6,-2.0000000,
,,,-46.35999721E-6,-10.7999993E-3,,,,,-46.35999721E-6,-1.8000001,
,,,-46.31999764E-6,-9.599999525E-3,,,,,-46.31999764E-6,-1.8000001,
,,,-46.27999806E-6,-9.999999776E-3,,,,,-46.27999806E-6,-1.6000000,
,,,-46.23999848E-6,-10.7999993E-3,,,,,-46.23999848E-6,-1.4000000,
,,,-46.19999891E-6,-10.4000000E-3,,,,,-46.19999891E-6,-1.2000000,
,,,-46.15999933E-6,-10.4000000E-3,,,,,-46.15999933E-6,-1.000000,
,,,-46.11999975E-6,-10.4000000E-3,,,,,-46.11999975E-6,-800.000011921E-3,
,,,-46.08000017E-6,-9.999999776E-3,,,,,-46.08000017E-6,-600.000023842E-3,
,,,-46.03999696E-6,-10.4000000E-3,,,,,-46.03999696E-6,-400.00000596E-3,
,,,-45.99999738E-6,-10.4000000E-3,,,,,-45.99999738E-6,-200.00000298E-3,
,,,-45.95999781E-6,-10.4000000E-3,,,,,-45.95999781E-6,0.0,
,,,-45.91999823E-6,-10.4000000E-3,,,,,-45.91999823E-6,200.00000298E-3,
,,,-45.87999865E-6,-10.4000000E-3,,,,,-45.87999865E-6,400.00000596E-3,
,,,-45.83999907E-6,-9.999999776E-3,,,,,-45.83999907E-6,600.000023842E-3,
,,,-45.79999950E-6,-9.999999776E-3,,,,,-45.79999950E-6,800.000011921E-3,
,,,-45.75999992E-6,-10.4000000E-3,,,,,-45.75999992E-6,1.000000,
,,,-45.72000034E-6,-10.4000000E-3,,,,,-45.72000034E-6,1.2000000,
,,,-45.67999713E-6,-9.200000204E-3,,,,,-45.67999713E-6,1.4000000,
,,,-45.63999755E-6,-10.4000000E-3,,,,,-45.63999755E-6,1.6000000,
,,,-45.59999797E-6,-9.999999776E-3,,,,,-45.59999797E-6,1.8000001,
,,,-45.55999840E-6,-8.399999700E-3,,,,,-45.55999840E-6,1.8000001,
,,,-45.51999882E-6,-9.999999776E-3,,,,,-45.51999882E-6,2.0000000,
,,,-45.47999924E-6,-9.599999525E-3,,,,,-45.47999924E-6,2.2000000,
,,,-45.43999967E-6,-8.399999700E-3,,,,,-45.43999967E-6,2.4000001,
,,,-45.40000009E-6,-9.200000204E-3,,,,,-45.40000009E-6,2.6000001,
,,,-45.36000051E-6,-8.399999700E-3,,,,,-45.36000051E-6,2.79999995,
,,,-45.31999730E-6,-7.999999449E-3,,,,,-45.31999730E-6,2.79999995,
,,,-45.27999772E-6,-8.799999952E-3,,,,,-45.27999772E-6,3.00000000,
,,,-45.23999814E-6,-7.599999662E-3,,,,,-45.23999814E-6,3.20000005,
,,,-45.19999857E-6,-8.399999700E-3,,,,,-45.19999857E-6,3.40000010,
,,,-45.15999899E-6,-8.799999952E-3,,,,,-45.15999899E-6,3.40000010,
,,,-45.11999941E-6,-6.00000005E-3,,,,,-45.11999941E-6,3.60000014,
,,,-45.07999984E-6,-7.19999988E-3,,,,,-45.07999984E-6,3.79999995,
,,,-45.04000026E-6,-7.599999662E-3,,,,,-45.04000026E-6,3.79999995,
,,,-44.99999704E-6,-6.00000005E-3,,,,,-44.99999704E-6,4.00000000,
,,,-44.95999747E-6,-7.19999988E-3,,,,,-44.95999747E-6,4.20000029,
,,,-44.91999789E-6,-6.79999962E-3,,,,,-44.91999789E-6,4.20000029,
,,,-44.87999831E-6,-5.59999980E-3,,,,,-44.87999831E-6,4.40000010,
,,,-44.83999874E-6,-6.39999984E-3,,,,,-44.83999874E-6,4.40000010,
,,,-44.79999916E-6,-5.59999980E-3,,,,,-44.79999916E-6,4.40000010,
,,,-44.75999958E-6,-5.59999980E-3,,,,,-44.75999958E-6,4.59999990,
,,,-44.72000001E-6,-6.00000005E-3,,,,,-44.72000001E-6,4.59999990,
,,,-44.68000043E-6,-4.39999998E-3,,,,,-44.68000043E-6,4.80000019,
,,,-44.63999721E-6,-4.79999976E-3,,,,,-44.63999721E-6,4.80000019,
,,,-44.59999764E-6,-5.20000001E-3,,,,,-44.59999764E-6,4.80000019,
,,,-44.55999806E-6,-3.19999992E-3,,,,,-44.55999806E-6,4.80000019,
,,,-44.51999848E-6,-3.59999994E-3,,,,,-44.51999848E-6,5.00000000,
,,,-44.47999891E-6,-3.99999972E-3,,,,,-44.47999891E-6,5.00000000,
,,,-44.43999933E-6,-3.19999992E-3,,,,,-44.43999933E-6,5.00000000,
,,,-44.39999975E-6,-2.79999990E-3,,,,,-44.39999975E-6,5.00000000,
,,,-44.36000017E-6,-2.79999990E-3,,,,,-44.36000017E-6,5.00000000,
,,,-44.31999696E-6,-1.9999999E-3,,,,,-44.31999696E-6,5.00000000,
,,,-44.27999738E-6,-1.1999999E-3,,,,,-44.27999738E-6,5.00000000,
,,,-44.23999781E-6,-1.9999999E-3,,,,,-44.23999781E-6,5.00000000,
,,,-44.19999823E-6,-1.9999999E-3,,,,,-44.19999823E-6,5.00000000,
,,,-44.15999865E-6,-399.99998990E-6,,,,,-44.15999865E-6,5.00000000,
,,,-44.11999907E-6,-799.999979790E-6,,,,,-44.11999907E-6,4.80000019,
,,,-44.07999950E-6,-799.999979790E-6,,,,,-44.07999950E-6,4.80000019,
,,,-44.03999992E-6,399.99998990E-6,,,,,-44.03999992E-6,4.80000019,
,,,-44.00000034E-6,-799.999979790E-6,,,,,-44.00000034E-6,4.80000019,
,,,-43.95999713E-6,0.0,,,,,-43.95999713E-6,4.80000019,
,,,-43.91999755E-6,1.1999999E-3,,,,,-43.91999755E-6,4.59999990,
,,,-43.87999797E-6,0.0,,,,,-43.87999797E-6,4.59999990,
,,,-43.83999840E-6,1.1999999E-3,,,,,-43.83999840E-6,4.40000010,
,,,-43.79999882E-6,1.6000000E-3,,,,,-43.79999882E-6,4.40000010,
,,,-43.75999924E-6,399.99998990E-6,,,,,-43.75999924E-6,4.20000029,
,,,-43.71999967E-6,2.3999999E-3,,,,,-43.71999967E-6,4.20000029,
,,,-43.68000009E-6,2.3999999E-3,,,,,-43.68000009E-6,4.00000000,
,,,-43.64000051E-6,1.6000000E-3,,,,,-43.64000051E-6,4.00000000,
,,,-43.59999730E-6,3.19999992E-3,,,,,-43.59999730E-6,3.79999995,
,,,-43.55999772E-6,2.79999990E-3,,,,,-43.55999772E-6,3.79999995,
,,,-43.51999814E-6,2.3999999E-3,,,,,-43.51999814E-6,3.60000014,
,,,-43.47999857E-6,3.99999972E-3,,,,,-43.47999857E-6,3.40000010,
,,,-43.43999899E-6,3.19999992E-3,,,,,-43.43999899E-6,3.20000005,
,,,-43.39999941E-6,2.3999999E-3,,,,,-43.39999941E-6,3.20000005,
,,,-43.35999984E-6,3.99999972E-3,,,,,-43.35999984E-6,3.00000000,
,,,-43.32000026E-6,3.59999994E-3,,,,,-43.32000026E-6,2.79999995,
,,,-43.27999704E-6,3.59999994E-3,,,,,-43.27999704E-6,2.6000001,
,,,-43.23999747E-6,3.19999992E-3,,,,,-43.23999747E-6,2.4000001,
,,,-43.19999789E-6,3.59999994E-3,,,,,-43.19999789E-6,2.2000000,
,,,-43.15999831E-6,4.39999998E-3,,,,,-43.15999831E-6,2.2000000,
,,,-43.11999874E-6,3.59999994E-3,,,,,-43.11999874E-6,2.0000000,
,,,-43.07999916E-6,4.39999998E-3,,,,,-43.07999916E-6,1.8000001,
,,,-43.03999958E-6,5.20000001E-3,,,,,-43.03999958E-6,1.6000000,
,,,-43.00000001E-6,3.99999972E-3,,,,,-43.00000001E-6,1.4000000,
,,,-42.96000043E-6,3.99999972E-3,,,,,-42.96000043E-6,1.2000000,
,,,-42.91999721E-6,4.39999998E-3,,,,,-42.91999721E-6,1.000000,
,,,-42.87999764E-6,4.79999976E-3,,,,,-42.87999764E-6,800.000011921E-3,
,,,-42.83999806E-6,4.39999998E-3,,,,,-42.83999806E-6,600.000023842E-3,
,,,-42.79999848E-6,3.99999972E-3,,,,,-42.79999848E-6,400.00000596E-3,
,,,-42.75999891E-6,4.79999976E-3,,,,,-42.75999891E-6,200.00000298E-3,
,,,-42.71999933E-6,5.20000001E-3,,,,,-42.71999933E-6,0.0,
,,,-42.67999975E-6,3.99999972E-3,,,,,-42.67999975E-6,0.0,
,,,-42.64000017E-6,4.39999998E-3,,,,,-42.64000017E-6,-200.00000298E-3,
,,,-42.60000060E-6,5.20000001E-3,,,,,-42.60000060E-6,-400.00000596E-3,
,,,-42.55999738E-6,3.99999972E-3,,,,,-42.55999738E-6,-600.000023842E-3,
,,,-42.51999781E-6,4.39999998E-3,,,,,-42.51999781E-6,-800.000011921E-3,
,,,-42.47999823E-6,4.79999976E-3,,,,,-42.47999823E-6,-1.000000,
,,,-42.43999865E-6,3.99999972E-3,,,,,-42.43999865E-6,-1.2000000,
,,,-42.39999907E-6,3.99999972E-3,,,,,-42.39999907E-6,-1.4000000,
,,,-42.35999950E-6,4.39999998E-3,,,,,-42.35999950E-6,-1.6000000,
,,,-42.31999992E-6,3.99999972E-3,,,,,-42.31999992E-6,-1.8000001,
,,,-42.28000034E-6,3.99999972E-3,,,,,-42.28000034E-6,-2.0000000,
,,,-42.23999713E-6,3.59999994E-3,,,,,-42.23999713E-6,-2.0000000,
,,,-42.19999755E-6,3.19999992E-3,,,,,-42.19999755E-6,-2.2000000,
,,,-42.15999797E-6,3.19999992E-3,,,,,-42.15999797E-6,-2.4000001,
,,,-42.11999840E-6,2.79999990E-3,,,,,-42.11999840E-6,-2.6000001,
,,,-42.07999882E-6,3.59999994E-3,,,,,-42.07999882E-6,-2.79999995,
,,,-42.03999924E-6,3.19999992E-3,,,,,-42.03999924E-6,-3.00000000,
,,,-41.99999967E-6,2.3999999E-3,,,,,-41.99999967E-6,-3.00000000,
,,,-41.96000009E-6,2.3999999E-3,,,,,-41.96000009E-6,-3.20000005,
,,,-41.92000051E-6,1.9999999E-3,,,,,-41.92000051E-6,-3.40000010,
,,,-41.87999730E-6,2.3999999E-3,,,,,-41.87999730E-6,-3.60000014,
,,,-41.83999772E-6,1.9999999E-3,,,,,-41.83999772E-6,-3.60000014,
,,,-41.79999814E-6,1.6000000E-3,,,,,-41.79999814E-6,-3.79999995,
,,,-41.75999857E-6,1.9999999E-3,,,,,-41.75999857E-6,-3.79999995,
,,,-41.71999899E-6,799.999979790E-6,,,,,-41.71999899E-6,-4.00000000,
,,,-41.67999941E-6,1.1999999E-3,,,,,-41.67999941E-6,-4.20000029,
,,,-41.63999984E-6,1.6000000E-3,,,,,-41.63999984E-6,-4.20000029,
,,,-41.60000026E-6,0.0,,,,,-41.60000026E-6,-4.40000010,
,,,-41.55999704E-6,0.0,,,,,-41.55999704E-6,-4.40000010,
,,,-41.51999747E-6,799.999979790E-6,,,,,-41.51999747E-6,-4.59999990,
,,,-41.47999789E-6,-399.99998990E-6,,,,,-41.47999789E-6,-4.59999990,
,,,-41.43999831E-6,-399.99998990E-6,,,,,-41.43999831E-6,-4.80000019,
,,,-41.39999874E-6,-799.999979790E-6,,,,,-41.39999874E-6,-4.80000019,
,,,-41.35999916E-6,-1.1999999E-3,,,,,-41.35999916E-6,-4.80000019,
,,,-41.31999958E-6,-1.1999999E-3,,,,,-41.31999958E-6,-4.80000019,
,,,-41.28000000E-6,-1.1999999E-3,,,,,-41.28000000E-6,-4.80000019,
,,,-41.24000043E-6,-1.9999999E-3,,,,,-41.24000043E-6,-5.00000000,
,,,-41.19999721E-6,-2.3999999E-3,,,,,-41.19999721E-6,-5.00000000,
,,,-41.15999764E-6,-2.79999990E-3,,,,,-41.15999764E-6,-5.00000000,
,,,-41.11999806E-6,-2.79999990E-3,,,,,-41.11999806E-6,-5.00000000,
,,,-41.07999848E-6,-2.79999990E-3,,,,,-41.07999848E-6,-5.00000000,
,,,-41.03999891E-6,-3.59999994E-3,,,,,-41.03999891E-6,-5.00000000,
,,,-40.99999933E-6,-3.59999994E-3,,,,,-40.99999933E-6,-5.00000000,
,,,-40.95999975E-6,-3.99999972E-3,,,,,-40.95999975E-6,-5.00000000,
,,,-40.92000017E-6,-4.39999998E-3,,,,,-40.92000017E-6,-5.00000000,
,,,-40.88000060E-6,-4.39999998E-3,,,,,-40.88000060E-6,-5.00000000,
,,,-40.83999738E-6,-4.79999976E-3,,,,,-40.83999738E-6,-5.00000000,
,,,-40.79999781E-6,-4.79999976E-3,,,,,-40.79999781E-6,-5.00000000,
,,,-40.75999823E-6,-5.59999980E-3,,,,,-40.75999823E-6,-4.80000019,
,,,-40.71999865E-6,-5.20000001E-3,,,,,-40.71999865E-6,-4.80000019,
,,,-40.67999907E-6,-5.20000001E-3,,,,,-40.67999907E-6,-4.80000019,
,,,-40.63999950E-6,-6.39999984E-3,,,,,-40.63999950E-6,-4.59999990,
,,,-40.59999992E-6,-6.39999984E-3,,,,,-40.59999992E-6,-4.59999990,
,,,-40.56000034E-6,-6.39999984E-3,,,,,-40.56000034E-6,-4.40000010,
,,,-40.51999713E-6,-6.79999962E-3,,,,,-40.51999713E-6,-4.40000010,
,,,-40.47999755E-6,-6.79999962E-3,,,,,-40.47999755E-6,-4.40000010,
,,,-40.43999797E-6,-7.19999988E-3,,,,,-40.43999797E-6,-4.20000029,
,,,-40.39999840E-6,-7.599999662E-3,,,,,-40.39999840E-6,-4.00000000,
,,,-40.35999882E-6,-7.599999662E-3,,,,,-40.35999882E-6,-4.00000000,
,,,-40.31999924E-6,-7.999999449E-3,,,,,-40.31999924E-6,-3.79999995,
,,,-40.27999967E-6,-7.599999662E-3,,,,,-40.27999967E-6,-3.79999995,
,,,-40.24000009E-6,-7.599999662E-3,,,,,-40.24000009E-6,-3.60000014,
,,,-40.20000051E-6,-9.200000204E-3,,,,,-40.20000051E-6,-3.40000010,
,,,-40.15999730E-6,-9.200000204E-3,,,,,-40.15999730E-6,-3.40000010,
,,,-40.11999772E-6,-7.999999449E-3,,,,,-40.11999772E-6,-3.20000005,
,,,-40.07999814E-6,-9.599999525E-3,,,,,-40.07999814E-6,-3.00000000,
,,,-40.03999857E-6,-9.599999525E-3,,,,,-40.03999857E-6,-2.79999995,
,,,-39.99999899E-6,-9.200000204E-3,,,,,-39.99999899E-6,-2.79999995,
,,,-39.95999941E-6,-9.999999776E-3,,,,,-39.95999941E-6,-2.6000001,
,,,-39.91999984E-6,-10.4000000E-3,,,,,-39.91999984E-6,-2.4000001,
,,,-39.88000026E-6,-9.200000204E-3,,,,,-39.88000026E-6,-2.2000000,
,,,-39.83999704E-6,-9.999999776E-3,,,,,-39.83999704E-6,-2.0000000,
,,,-39.79999747E-6,-10.4000000E-3,,,,,-39.79999747E-6,-1.8000001,
,,,-39.75999789E-6,-10.4000000E-3,,,,,-39.75999789E-6,-1.8000001,
,,,-39.71999831E-6,-9.599999525E-3,,,,,-39.71999831E-6,-1.4000000,
,,,-39.67999874E-6,-9.999999776E-3,,,,,-39.67999874E-6,-1.4000000,
,,,-39.63999916E-6,-10.7999993E-3,,,,,-39.63999916E-6,-1.2000000,
,,,-39.59999958E-6,-9.999999776E-3,,,,,-39.59999958E-6,-1.000000,
,,,-39.56000000E-6,-10.4000000E-3,,,,,-39.56000000E-6,-800.000011921E-3,
,,,-39.52000043E-6,-10.7999993E-3,,,,,-39.52000043E-6,-600.000023842E-3,
,,,-39.47999721E-6,-9.599999525E-3,,,,,-39.47999721E-6,-400.00000596E-3,
,,,-39.43999764E-6,-10.7999993E-3,,,,,-39.43999764E-6,-200.00000298E-3,
,,,-39.39999806E-6,-10.4000000E-3,,,,,-39.39999806E-6,0.0,
,,,-39.35999848E-6,-10.4000000E-3,,,,,-39.35999848E-6,200.00000298E-3,
,,,-39.31999890E-6,-10.4000000E-3,,,,,-39.31999890E-6,400.00000596E-3,
,,,-39.27999933E-6,-9.599999525E-3,,,,,-39.27999933E-6,600.000023842E-3,
,,,-39.23999975E-6,-9.999999776E-3,,,,,-39.23999975E-6,800.000011921E-3,
,,,-39.20000017E-6,-10.4000000E-3,,,,,-39.20000017E-6,1.000000,
,,,-39.16000060E-6,-9.599999525E-3,,,,,-39.16000060E-6,1.2000000,
,,,-39.11999738E-6,-9.599999525E-3,,,,,-39.11999738E-6,1.4000000,
,,,-39.07999780E-6,-10.4000000E-3,,,,,-39.07999780E-6,1.6000000,
,,,-39.03999823E-6,-9.200000204E-3,,,,,-39.03999823E-6,1.6000000,
,,,-38.99999865E-6,-9.599999525E-3,,,,,-38.99999865E-6,2.0000000,
,,,-38.95999907E-6,-10.4000000E-3,,,,,-38.95999907E-6,2.0000000,
,,,-38.91999950E-6,-9.599999525E-3,,,,,-38.91999950E-6,2.2000000,
,,,-38.87999992E-6,-8.399999700E-3,,,,,-38.87999992E-6,2.4000001,
,,,-38.84000034E-6,-9.200000204E-3,,,,,-38.84000034E-6,2.6000001,
,,,-38.79999713E-6,-9.599999525E-3,,,,,-38.79999713E-6,2.79999995,
,,,-38.75999755E-6,-7.999999449E-3,,,,,-38.75999755E-6,2.79999995,
,,,-38.71999797E-6,-8.399999700E-3,,,,,-38.71999797E-6,3.00000000,
,,,-38.67999840E-6,-8.799999952E-3,,,,,-38.67999840E-6,3.20000005,
,,,-38.63999882E-6,-7.599999662E-3,,,,,-38.63999882E-6,3.40000010,
,,,-38.59999924E-6,-7.599999662E-3,,,,,-38.59999924E-6,3.60000014,
,,,-38.55999967E-6,-8.399999700E-3,,,,,-38.55999967E-6,3.60000014,
,,,-38.52000009E-6,-7.19999988E-3,,,,,-38.52000009E-6,3.79999995,
,,,-38.48000051E-6,-6.39999984E-3,,,,,-38.48000051E-6,3.79999995,
,,,-38.43999730E-6,-7.19999988E-3,,,,,-38.43999730E-6,4.00000000,
,,,-38.39999772E-6,-6.79999962E-3,,,,,-38.39999772E-6,4.00000000,
,,,-38.35999814E-6,-6.39999984E-3,,,,,-38.35999814E-6,4.20000029,
