magnetisem/extension2/high_freq/2636600.csv

Record Length,2500,Points,-4.99999987E-6,-1.9999999E-3,,Record Length,2500,Points,-4.99999987E-6,-2.0000000,
Sample Interval,3.99999989E-9,s,-4.99599992E-6,-1.4000000E-3,,Sample Interval,3.99999989E-9,s,-4.99599992E-6,-1.8000001,
Trigger Point,1.2500001E3,Samples,-4.99199996E-6,-1.4000000E-3,,Trigger Point,1.2500001E3,Samples,-4.99199996E-6,-1.4000000,
,,,-4.98800000E-6,-999.999931082E-6,,,,,-4.98800000E-6,-1.000000,
,,,-4.98400004E-6,-399.99998990E-6,,,,,-4.98400004E-6,-800.000011921E-3,
,,,-4.98000009E-6,-599.999970291E-6,,,,,-4.98000009E-6,-400.00000596E-3,
Source,CH1,,-4.97599967E-6,199.99999495E-6,,Source,CH2,,-4.97599967E-6,0.0,
Vertical Units,Volts,,-4.97199972E-6,599.999970291E-6,,Vertical Units,Volts,,-4.97199972E-6,400.00000596E-3,
Vertical Scale,4.99999987E-3,,-4.96799976E-6,599.999970291E-6,,Vertical Scale,5.00000007,,-4.96799976E-6,600.000023842E-3,
Vertical Offset,0,,-4.96399980E-6,1.4000000E-3,,Vertical Offset,0,,-4.96399980E-6,1.000000,
Horizontal Units,s,,-4.95999984E-6,1.1999999E-3,,Horizontal Units,s,,-4.95999984E-6,1.4000000,
Horizontal Scale,999.999971718E-9,,-4.95599988E-6,1.9999999E-3,,Horizontal Scale,999.999971718E-9,,-4.95599988E-6,1.8000001,
Pt Fmt,Y,,-4.95199993E-6,1.8000000E-3,,Pt Fmt,Y,,-4.95199993E-6,2.0000000,
Yzero,520.000000000E-3,,-4.94799997E-6,1.6000000E-3,,Yzero,-120.0000000E-3,,-4.94799997E-6,2.4000001,
Probe Atten,1.000000,,-4.94400001E-6,2.2000000E-3,,Probe Atten,1.000000,,-4.94400001E-6,2.6000001,
,,,-4.94000005E-6,1.8000000E-3,,,,,-4.94000005E-6,3.00000000,
Note,TBS 1052B-EDU - 11:42:04   23-Nov-22,,-4.93600010E-6,2.2000000E-3,,Note,TBS 1052B-EDU - 11:42:04   23-Nov-22,,-4.93600010E-6,3.20000005,
,,,-4.93199968E-6,1.6000000E-3,,,,,-4.93199968E-6,3.60000014,
,,,-4.92799973E-6,999.999931082E-6,,,,,-4.92799973E-6,3.79999995,
,,,-4.92399977E-6,1.6000000E-3,,,,,-4.92399977E-6,4.00000000,
,,,-4.91999981E-6,799.999979790E-6,,,,,-4.91999981E-6,4.20000029,
,,,-4.91599985E-6,999.999931082E-6,,,,,-4.91599985E-6,4.40000010,
,,,-4.91199989E-6,799.999979790E-6,,,,,-4.91199989E-6,4.59999990,
,,,-4.90799994E-6,199.99999495E-6,,,,,-4.90799994E-6,4.80000019,
,,,-4.90399998E-6,199.99999495E-6,,,,,-4.90399998E-6,5.00000000,
,,,-4.90000002E-6,-399.99998990E-6,,,,,-4.90000002E-6,5.00000000,
,,,-4.89600006E-6,-599.999970291E-6,,,,,-4.89600006E-6,5.20000029,
,,,-4.89199965E-6,-1.1999999E-3,,,,,-4.89199965E-6,5.20000029,
,,,-4.88799969E-6,-1.4000000E-3,,,,,-4.88799969E-6,5.20000029,
,,,-4.88399974E-6,-1.8000000E-3,,,,,-4.88399974E-6,5.20000029,
,,,-4.87999978E-6,-1.9999999E-3,,,,,-4.87999978E-6,5.40000010,
,,,-4.87599982E-6,-2.6000000E-3,,,,,-4.87599982E-6,5.20000029,
,,,-4.87199986E-6,-2.79999990E-3,,,,,-4.87199986E-6,5.20000029,
,,,-4.86799991E-6,-3.00000003E-3,,,,,-4.86799991E-6,5.20000029,
,,,-4.86399995E-6,-3.79999983E-3,,,,,-4.86399995E-6,5.00000000,
,,,-4.85999999E-6,-3.99999972E-3,,,,,-4.85999999E-6,5.00000000,
,,,-4.85600003E-6,-4.79999976E-3,,,,,-4.85600003E-6,4.80000019,
,,,-4.85200007E-6,-5.39999967E-3,,,,,-4.85200007E-6,4.59999990,
,,,-4.84799966E-6,-5.79999993E-3,,,,,-4.84799966E-6,4.40000010,
,,,-4.84399970E-6,-6.39999984E-3,,,,,-4.84399970E-6,4.20000029,
,,,-4.83999975E-6,-6.99999975E-3,,,,,-4.83999975E-6,4.00000000,
,,,-4.83599979E-6,-7.599999662E-3,,,,,-4.83599979E-6,3.79999995,
,,,-4.83199983E-6,-7.999999449E-3,,,,,-4.83199983E-6,3.60000014,
,,,-4.82799987E-6,-8.599999361E-3,,,,,-4.82799987E-6,3.40000010,
,,,-4.82399992E-6,-8.799999952E-3,,,,,-4.82399992E-6,3.00000000,
,,,-4.81999996E-6,-9.399999864E-3,,,,,-4.81999996E-6,2.79999995,
,,,-4.81600000E-6,-9.399999864E-3,,,,,-4.81600000E-6,2.6000001,
,,,-4.81200004E-6,-9.800000116E-3,,,,,-4.81200004E-6,2.2000000,
,,,-4.80800009E-6,-10.1999994E-3,,,,,-4.80800009E-6,1.8000001,
,,,-4.80399967E-6,-10.1999994E-3,,,,,-4.80399967E-6,1.6000000,
,,,-4.79999972E-6,-10.9999999E-3,,,,,-4.79999972E-6,1.2000000,
,,,-4.79599976E-6,-10.7999993E-3,,,,,-4.79599976E-6,800.000011921E-3,
,,,-4.79199980E-6,-11.3999993E-3,,,,,-4.79199980E-6,400.00000596E-3,
,,,-4.78799984E-6,-12.1999998E-3,,,,,-4.78799984E-6,200.00000298E-3,
,,,-4.78399988E-6,-12.0000001E-3,,,,,-4.78399988E-6,-200.00000298E-3,
,,,-4.77999993E-6,-12.9999993E-3,,,,,-4.77999993E-6,-600.000023842E-3,
,,,-4.77599997E-6,-13.1999999E-3,,,,,-4.77599997E-6,-800.000011921E-3,
,,,-4.77200001E-6,-13.1999999E-3,,,,,-4.77200001E-6,-1.2000000,
,,,-4.76800005E-6,-13.7999998E-3,,,,,-4.76800005E-6,-1.6000000,
,,,-4.76400010E-6,-13.5999992E-3,,,,,-4.76400010E-6,-1.8000001,
,,,-4.75999968E-6,-13.7999998E-3,,,,,-4.75999968E-6,-2.2000000,
,,,-4.75599973E-6,-13.7999998E-3,,,,,-4.75599973E-6,-2.6000001,
,,,-4.75199977E-6,-13.5999992E-3,,,,,-4.75199977E-6,-2.79999995,
,,,-4.74799981E-6,-13.3999996E-3,,,,,-4.74799981E-6,-3.00000000,
,,,-4.74399985E-6,-13.1999999E-3,,,,,-4.74399985E-6,-3.40000010,
,,,-4.73999989E-6,-12.9999993E-3,,,,,-4.73999989E-6,-3.60000014,
,,,-4.73599994E-6,-12.7999997E-3,,,,,-4.73599994E-6,-3.79999995,
,,,-4.73199998E-6,-12.6000000E-3,,,,,-4.73199998E-6,-4.00000000,
,,,-4.72800002E-6,-12.1999998E-3,,,,,-4.72800002E-6,-4.40000010,
,,,-4.72400006E-6,-12.3999994E-3,,,,,-4.72400006E-6,-4.40000010,
,,,-4.72000011E-6,-12.0000001E-3,,,,,-4.72000011E-6,-4.59999990,
,,,-4.71599969E-6,-11.7999995E-3,,,,,-4.71599969E-6,-4.80000019,
,,,-4.71199974E-6,-11.7999995E-3,,,,,-4.71199974E-6,-5.00000000,
,,,-4.70799978E-6,-11.1999996E-3,,,,,-4.70799978E-6,-5.20000029,
,,,-4.70399982E-6,-10.7999993E-3,,,,,-4.70399982E-6,-5.20000029,
,,,-4.69999986E-6,-10.7999993E-3,,,,,-4.69999986E-6,-5.20000029,
,,,-4.69599991E-6,-10.1999994E-3,,,,,-4.69599991E-6,-5.40000010,
,,,-4.69199995E-6,-9.800000116E-3,,,,,-4.69199995E-6,-5.40000010,
,,,-4.68799999E-6,-9.399999864E-3,,,,,-4.68799999E-6,-5.40000010,
,,,-4.68400003E-6,-8.599999361E-3,,,,,-4.68400003E-6,-5.20000029,
,,,-4.68000007E-6,-8.599999361E-3,,,,,-4.68000007E-6,-5.20000029,
,,,-4.67599966E-6,-7.999999449E-3,,,,,-4.67599966E-6,-5.20000029,
,,,-4.67199970E-6,-7.400000002E-3,,,,,-4.67199970E-6,-5.00000000,
,,,-4.66799975E-6,-7.400000002E-3,,,,,-4.66799975E-6,-5.00000000,
,,,-4.66399979E-6,-6.59999996E-3,,,,,-4.66399979E-6,-4.80000019,
,,,-4.65999983E-6,-6.19999971E-3,,,,,-4.65999983E-6,-4.59999990,
,,,-4.65599987E-6,-5.79999993E-3,,,,,-4.65599987E-6,-4.40000010,
,,,-4.65199992E-6,-5.20000001E-3,,,,,-4.65199992E-6,-4.20000029,
,,,-4.64799996E-6,-4.79999976E-3,,,,,-4.64799996E-6,-4.20000029,
,,,-4.64400000E-6,-4.60000010E-3,,,,,-4.64400000E-6,-3.79999995,
,,,-4.64000004E-6,-3.79999983E-3,,,,,-4.64000004E-6,-3.60000014,
,,,-4.63600009E-6,-3.59999994E-3,,,,,-4.63600009E-6,-3.40000010,
,,,-4.63199967E-6,-3.00000003E-3,,,,,-4.63199967E-6,-3.00000000,
,,,-4.62799972E-6,-2.2000000E-3,,,,,-4.62799972E-6,-2.79999995,
,,,-4.62399976E-6,-2.2000000E-3,,,,,-4.62399976E-6,-2.6000001,
,,,-4.61999980E-6,-1.4000000E-3,,,,,-4.61999980E-6,-2.2000000,
,,,-4.61599984E-6,-1.4000000E-3,,,,,-4.61599984E-6,-2.0000000,
,,,-4.61199988E-6,-1.1999999E-3,,,,,-4.61199988E-6,-1.6000000,
,,,-4.60799993E-6,-399.99998990E-6,,,,,-4.60799993E-6,-1.2000000,
,,,-4.60399997E-6,-599.999970291E-6,,,,,-4.60399997E-6,-1.000000,
,,,-4.60000001E-6,199.99999495E-6,,,,,-4.60000001E-6,-600.000023842E-3,
,,,-4.59600005E-6,599.999970291E-6,,,,,-4.59600005E-6,-200.00000298E-3,
,,,-4.59200010E-6,999.999931082E-6,,,,,-4.59200010E-6,200.00000298E-3,
,,,-4.58799968E-6,1.4000000E-3,,,,,-4.58799968E-6,600.000023842E-3,
,,,-4.58399973E-6,1.6000000E-3,,,,,-4.58399973E-6,800.000011921E-3,
,,,-4.57999977E-6,1.8000000E-3,,,,,-4.57999977E-6,1.2000000,
,,,-4.57599981E-6,1.9999999E-3,,,,,-4.57599981E-6,1.6000000,
,,,-4.57199985E-6,2.3999999E-3,,,,,-4.57199985E-6,1.8000001,
,,,-4.56799989E-6,2.3999999E-3,,,,,-4.56799989E-6,2.2000000,
,,,-4.56399994E-6,2.79999990E-3,,,,,-4.56399994E-6,2.6000001,
,,,-4.55999998E-6,2.6000000E-3,,,,,-4.55999998E-6,2.79999995,
,,,-4.55600002E-6,2.3999999E-3,,,,,-4.55600002E-6,3.20000005,
,,,-4.55200006E-6,2.79999990E-3,,,,,-4.55200006E-6,3.40000010,
,,,-4.54800011E-6,1.9999999E-3,,,,,-4.54800011E-6,3.60000014,
,,,-4.54399969E-6,1.9999999E-3,,,,,-4.54399969E-6,3.79999995,
,,,-4.53999974E-6,1.8000000E-3,,,,,-4.53999974E-6,4.20000029,
,,,-4.53599978E-6,999.999931082E-6,,,,,-4.53599978E-6,4.20000029,
,,,-4.53199982E-6,1.4000000E-3,,,,,-4.53199982E-6,4.40000010,
,,,-4.52799986E-6,399.99998990E-6,,,,,-4.52799986E-6,4.59999990,
,,,-4.52399991E-6,199.99999495E-6,,,,,-4.52399991E-6,4.80000019,
,,,-4.51999995E-6,0.0,,,,,-4.51999995E-6,5.00000000,
,,,-4.51599999E-6,-599.999970291E-6,,,,,-4.51599999E-6,5.20000029,
,,,-4.51200003E-6,-799.999979790E-6,,,,,-4.51200003E-6,5.20000029,
,,,-4.50800007E-6,-1.1999999E-3,,,,,-4.50800007E-6,5.20000029,
,,,-4.50399966E-6,-1.6000000E-3,,,,,-4.50399966E-6,5.20000029,
,,,-4.49999970E-6,-1.6000000E-3,,,,,-4.49999970E-6,5.20000029,
,,,-4.49599975E-6,-2.2000000E-3,,,,,-4.49599975E-6,5.40000010,
,,,-4.49199979E-6,-2.6000000E-3,,,,,-4.49199979E-6,5.20000029,
,,,-4.48799983E-6,-2.79999990E-3,,,,,-4.48799983E-6,5.20000029,
,,,-4.48399987E-6,-3.39999981E-3,,,,,-4.48399987E-6,5.00000000,
,,,-4.47999992E-6,-3.99999972E-3,,,,,-4.47999992E-6,5.00000000,
,,,-4.47599996E-6,-4.39999998E-3,,,,,-4.47599996E-6,4.80000019,
,,,-4.47200000E-6,-5.20000001E-3,,,,,-4.47200000E-6,4.59999990,
,,,-4.46800004E-6,-5.79999993E-3,,,,,-4.46800004E-6,4.59999990,
,,,-4.46400009E-6,-6.39999984E-3,,,,,-4.46400009E-6,4.40000010,
,,,-4.45999967E-6,-6.99999975E-3,,,,,-4.45999967E-6,4.20000029,
,,,-4.45599971E-6,-7.599999662E-3,,,,,-4.45599971E-6,4.00000000,
,,,-4.45199976E-6,-7.999999449E-3,,,,,-4.45199976E-6,3.79999995,
,,,-4.44799980E-6,-8.599999361E-3,,,,,-4.44799980E-6,3.60000014,
,,,-4.44399984E-6,-8.799999952E-3,,,,,-4.44399984E-6,3.20000005,
,,,-4.43999988E-6,-8.999999613E-3,,,,,-4.43999988E-6,3.00000000,
,,,-4.43599993E-6,-9.399999864E-3,,,,,-4.43599993E-6,2.79999995,
,,,-4.43199997E-6,-9.200000204E-3,,,,,-4.43199997E-6,2.4000001,
,,,-4.42800001E-6,-9.800000116E-3,,,,,-4.42800001E-6,2.0000000,
,,,-4.42400005E-6,-10.4000000E-3,,,,,-4.42400005E-6,1.8000001,
,,,-4.42000010E-6,-10.1999994E-3,,,,,-4.42000010E-6,1.4000000,
,,,-4.41599968E-6,-11.1999996E-3,,,,,-4.41599968E-6,1.000000,
,,,-4.41199973E-6,-11.1999996E-3,,,,,-4.41199973E-6,800.000011921E-3,
,,,-4.40799977E-6,-11.5999999E-3,,,,,-4.40799977E-6,400.00000596E-3,
,,,-4.40399981E-6,-12.6000000E-3,,,,,-4.40399981E-6,0.0,
,,,-4.39999985E-6,-12.3999994E-3,,,,,-4.39999985E-6,-400.00000596E-3,
,,,-4.39599989E-6,-13.1999999E-3,,,,,-4.39599989E-6,-600.000023842E-3,
,,,-4.39199994E-6,-13.3999996E-3,,,,,-4.39199994E-6,-1.000000,
,,,-4.38799998E-6,-13.1999999E-3,,,,,-4.38799998E-6,-1.4000000,
,,,-4.38400002E-6,-13.7999998E-3,,,,,-4.38400002E-6,-1.6000000,
,,,-4.38000006E-6,-13.3999996E-3,,,,,-4.38000006E-6,-2.0000000,
,,,-4.37600011E-6,-13.3999996E-3,,,,,-4.37600011E-6,-2.4000001,
,,,-4.37199969E-6,-13.5999992E-3,,,,,-4.37199969E-6,-2.6000001,
,,,-4.36799974E-6,-13.3999996E-3,,,,,-4.36799974E-6,-3.00000000,
,,,-4.36399978E-6,-13.1999999E-3,,,,,-4.36399978E-6,-3.20000005,
,,,-4.35999982E-6,-13.1999999E-3,,,,,-4.35999982E-6,-3.40000010,
,,,-4.35599986E-6,-12.7999997E-3,,,,,-4.35599986E-6,-3.79999995,
,,,-4.35199991E-6,-12.7999997E-3,,,,,-4.35199991E-6,-4.00000000,
,,,-4.34799995E-6,-12.7999997E-3,,,,,-4.34799995E-6,-4.20000029,
,,,-4.34399999E-6,-12.6000000E-3,,,,,-4.34399999E-6,-4.40000010,
,,,-4.34000003E-6,-12.6000000E-3,,,,,-4.34000003E-6,-4.59999990,
,,,-4.33600007E-6,-12.6000000E-3,,,,,-4.33600007E-6,-4.80000019,
,,,-4.33200012E-6,-12.0000001E-3,,,,,-4.33200012E-6,-4.80000019,
,,,-4.32799970E-6,-11.7999995E-3,,,,,-4.32799970E-6,-5.00000000,
,,,-4.32399975E-6,-11.3999993E-3,,,,,-4.32399975E-6,-5.20000029,
,,,-4.31999979E-6,-10.7999993E-3,,,,,-4.31999979E-6,-5.20000029,
,,,-4.31599983E-6,-10.9999999E-3,,,,,-4.31599983E-6,-5.20000029,
,,,-4.31199987E-6,-9.999999776E-3,,,,,-4.31199987E-6,-5.20000029,
,,,-4.30799992E-6,-9.800000116E-3,,,,,-4.30799992E-6,-5.20000029,
,,,-4.30399996E-6,-9.399999864E-3,,,,,-4.30399996E-6,-5.20000029,
,,,-4.30000000E-6,-8.599999361E-3,,,,,-4.30000000E-6,-5.20000029,
,,,-4.29600004E-6,-8.799999952E-3,,,,,-4.29600004E-6,-5.20000029,
,,,-4.29200009E-6,-7.999999449E-3,,,,,-4.29200009E-6,-5.20000029,
,,,-4.28799967E-6,-7.599999662E-3,,,,,-4.28799967E-6,-5.00000000,
,,,-4.28399971E-6,-7.19999988E-3,,,,,-4.28399971E-6,-4.80000019,
,,,-4.27999976E-6,-6.39999984E-3,,,,,-4.27999976E-6,-4.80000019,
,,,-4.27599980E-6,-6.19999971E-3,,,,,-4.27599980E-6,-4.59999990,
,,,-4.27199984E-6,-5.39999967E-3,,,,,-4.27199984E-6,-4.40000010,
,,,-4.26799988E-6,-5.20000001E-3,,,,,-4.26799988E-6,-4.20000029,
,,,-4.26399993E-6,-4.79999976E-3,,,,,-4.26399993E-6,-4.00000000,
,,,-4.25999997E-6,-3.99999972E-3,,,,,-4.25999997E-6,-3.79999995,
,,,-4.25600001E-6,-3.79999983E-3,,,,,-4.25600001E-6,-3.60000014,
,,,-4.25200005E-6,-3.19999992E-3,,,,,-4.25200005E-6,-3.20000005,
,,,-4.24800010E-6,-2.79999990E-3,,,,,-4.24800010E-6,-3.00000000,
,,,-4.24399968E-6,-2.6000000E-3,,,,,-4.24399968E-6,-2.79999995,
,,,-4.23999973E-6,-2.3999999E-3,,,,,-4.23999973E-6,-2.4000001,
,,,-4.23599977E-6,-1.8000000E-3,,,,,-4.23599977E-6,-2.0000000,
,,,-4.23199981E-6,-1.8000000E-3,,,,,-4.23199981E-6,-1.8000001,
,,,-4.22799985E-6,-1.4000000E-3,,,,,-4.22799985E-6,-1.4000000,
,,,-4.22399989E-6,-1.1999999E-3,,,,,-4.22399989E-6,-1.000000,
,,,-4.21999994E-6,-999.999931082E-6,,,,,-4.21999994E-6,-800.000011921E-3,
,,,-4.21599998E-6,-399.99998990E-6,,,,,-4.21599998E-6,-400.00000596E-3,
,,,-4.21200002E-6,-199.99999495E-6,,,,,-4.21200002E-6,0.0,
,,,-4.20800006E-6,399.99998990E-6,,,,,-4.20800006E-6,400.00000596E-3,
,,,-4.20400011E-6,599.999970291E-6,,,,,-4.20400011E-6,600.000023842E-3,
,,,-4.19999969E-6,999.999931082E-6,,,,,-4.19999969E-6,1.000000,
,,,-4.19599974E-6,1.4000000E-3,,,,,-4.19599974E-6,1.4000000,
,,,-4.19199978E-6,1.4000000E-3,,,,,-4.19199978E-6,1.8000001,
,,,-4.18799982E-6,1.9999999E-3,,,,,-4.18799982E-6,2.0000000,
,,,-4.18399986E-6,1.8000000E-3,,,,,-4.18399986E-6,2.4000001,
,,,-4.17999991E-6,2.2000000E-3,,,,,-4.17999991E-6,2.6000001,
,,,-4.17599995E-6,1.8000000E-3,,,,,-4.17599995E-6,3.00000000,
,,,-4.17199999E-6,1.8000000E-3,,,,,-4.17199999E-6,3.20000005,
,,,-4.16800003E-6,1.8000000E-3,,,,,-4.16800003E-6,3.60000014,
,,,-4.16400007E-6,1.1999999E-3,,,,,-4.16400007E-6,3.79999995,
,,,-4.16000012E-6,1.1999999E-3,,,,,-4.16000012E-6,4.00000000,
,,,-4.15599970E-6,999.999931082E-6,,,,,-4.15599970E-6,4.20000029,
,,,-4.15199975E-6,799.999979790E-6,,,,,-4.15199975E-6,4.40000010,
,,,-4.14799979E-6,799.999979790E-6,,,,,-4.14799979E-6,4.59999990,
,,,-4.14399983E-6,399.99998990E-6,,,,,-4.14399983E-6,4.80000019,
,,,-4.13999987E-6,199.99999495E-6,,,,,-4.13999987E-6,4.80000019,
,,,-4.13599992E-6,-199.99999495E-6,,,,,-4.13599992E-6,5.00000000,
,,,-4.13199996E-6,-199.99999495E-6,,,,,-4.13199996E-6,5.20000029,
,,,-4.12800000E-6,-799.999979790E-6,,,,,-4.12800000E-6,5.20000029,
,,,-4.12400004E-6,-1.1999999E-3,,,,,-4.12400004E-6,5.20000029,
,,,-4.12000009E-6,-1.4000000E-3,,,,,-4.12000009E-6,5.40000010,
,,,-4.11599967E-6,-1.9999999E-3,,,,,-4.11599967E-6,5.40000010,
,,,-4.11199971E-6,-2.2000000E-3,,,,,-4.11199971E-6,5.20000029,
,,,-4.10799976E-6,-2.79999990E-3,,,,,-4.10799976E-6,5.20000029,
,,,-4.10399980E-6,-3.19999992E-3,,,,,-4.10399980E-6,5.20000029,
,,,-4.09999984E-6,-3.79999983E-3,,,,,-4.09999984E-6,5.00000000,
,,,-4.09599988E-6,-4.39999998E-3,,,,,-4.09599988E-6,5.00000000,
,,,-4.09199993E-6,-4.79999976E-3,,,,,-4.09199993E-6,4.80000019,
,,,-4.08799997E-6,-5.79999993E-3,,,,,-4.08799997E-6,4.59999990,
,,,-4.08400001E-6,-6.39999984E-3,,,,,-4.08400001E-6,4.40000010,
,,,-4.08000005E-6,-6.79999962E-3,,,,,-4.08000005E-6,4.20000029,
,,,-4.07600010E-6,-7.599999662E-3,,,,,-4.07600010E-6,4.20000029,
,,,-4.07199968E-6,-7.999999449E-3,,,,,-4.07199968E-6,3.79999995,
,,,-4.06799973E-6,-8.399999700E-3,,,,,-4.06799973E-6,3.60000014,
,,,-4.06399977E-6,-9.200000204E-3,,,,,-4.06399977E-6,3.40000010,
,,,-4.05999981E-6,-9.599999525E-3,,,,,-4.05999981E-6,3.20000005,
,,,-4.05599985E-6,-9.999999776E-3,,,,,-4.05599985E-6,2.79999995,
,,,-4.05199989E-6,-10.4000000E-3,,,,,-4.05199989E-6,2.6000001,
,,,-4.04799994E-6,-10.4000000E-3,,,,,-4.04799994E-6,2.2000000,
,,,-4.04399998E-6,-10.5999997E-3,,,,,-4.04399998E-6,1.8000001,
,,,-4.04000002E-6,-10.5999997E-3,,,,,-4.04000002E-6,1.6000000,
,,,-4.03600006E-6,-10.9999999E-3,,,,,-4.03600006E-6,1.2000000,
,,,-4.03200011E-6,-11.3999993E-3,,,,,-4.03200011E-6,800.000011921E-3,
,,,-4.02799969E-6,-11.3999993E-3,,,,,-4.02799969E-6,600.000023842E-3,
,,,-4.02399974E-6,-11.7999995E-3,,,,,-4.02399974E-6,200.00000298E-3,
,,,-4.01999978E-6,-12.0000001E-3,,,,,-4.01999978E-6,-200.00000298E-3,
,,,-4.01599982E-6,-12.3999994E-3,,,,,-4.01599982E-6,-600.000023842E-3,
,,,-4.01199986E-6,-12.6000000E-3,,,,,-4.01199986E-6,-800.000011921E-3,
,,,-4.00799991E-6,-12.7999997E-3,,,,,-4.00799991E-6,-1.2000000,
,,,-4.00399995E-6,-13.1999999E-3,,,,,-4.00399995E-6,-1.6000000,
,,,-3.99999999E-6,-13.1999999E-3,,,,,-3.99999999E-6,-1.8000001,
,,,-3.99600003E-6,-13.3999996E-3,,,,,-3.99600003E-6,-2.2000000,
,,,-3.99200007E-6,-13.5999992E-3,,,,,-3.99200007E-6,-2.4000001,
,,,-3.98800012E-6,-13.1999999E-3,,,,,-3.98800012E-6,-2.79999995,
,,,-3.98399970E-6,-13.3999996E-3,,,,,-3.98399970E-6,-3.00000000,
,,,-3.97999975E-6,-13.5999992E-3,,,,,-3.97999975E-6,-3.40000010,
,,,-3.97599979E-6,-13.1999999E-3,,,,,-3.97599979E-6,-3.60000014,
,,,-3.97199983E-6,-13.3999996E-3,,,,,-3.97199983E-6,-3.79999995,
,,,-3.96799987E-6,-12.9999993E-3,,,,,-3.96799987E-6,-4.00000000,
,,,-3.96399992E-6,-12.7999997E-3,,,,,-3.96399992E-6,-4.20000029,
,,,-3.95999996E-6,-13.1999999E-3,,,,,-3.95999996E-6,-4.40000010,
,,,-3.95600000E-6,-12.3999994E-3,,,,,-3.95600000E-6,-4.59999990,
,,,-3.95200004E-6,-12.6000000E-3,,,,,-3.95200004E-6,-4.80000019,
,,,-3.94800009E-6,-12.1999998E-3,,,,,-3.94800009E-6,-5.00000000,
,,,-3.94400013E-6,-11.7999995E-3,,,,,-3.94400013E-6,-5.00000000,
,,,-3.93999971E-6,-11.7999995E-3,,,,,-3.93999971E-6,-5.20000029,
,,,-3.93599976E-6,-10.9999999E-3,,,,,-3.93599976E-6,-5.20000029,
,,,-3.93199980E-6,-10.9999999E-3,,,,,-3.93199980E-6,-5.20000029,
,,,-3.92799984E-6,-10.1999994E-3,,,,,-3.92799984E-6,-5.20000029,
,,,-3.92399988E-6,-9.599999525E-3,,,,,-3.92399988E-6,-5.40000010,
,,,-3.91999993E-6,-9.399999864E-3,,,,,-3.91999993E-6,-5.20000029,
,,,-3.91599997E-6,-8.599999361E-3,,,,,-3.91599997E-6,-5.20000029,
,,,-3.91200001E-6,-8.200000040E-3,,,,,-3.91200001E-6,-5.20000029,
,,,-3.90800005E-6,-7.400000002E-3,,,,,-3.90800005E-6,-5.00000000,
,,,-3.90400010E-6,-6.99999975E-3,,,,,-3.90400010E-6,-5.00000000,
,,,-3.89999968E-6,-6.39999984E-3,,,,,-3.89999968E-6,-4.80000019,
,,,-3.89599973E-6,-6.00000005E-3,,,,,-3.89599973E-6,-4.59999990,
,,,-3.89199977E-6,-5.59999980E-3,,,,,-3.89199977E-6,-4.59999990,
,,,-3.88799981E-6,-4.79999976E-3,,,,,-3.88799981E-6,-4.20000029,
,,,-3.88399985E-6,-4.60000010E-3,,,,,-3.88399985E-6,-4.20000029,
,,,-3.87999989E-6,-3.99999972E-3,,,,,-3.87999989E-6,-3.79999995,
,,,-3.87599994E-6,-3.79999983E-3,,,,,-3.87599994E-6,-3.60000014,
,,,-3.87199998E-6,-3.19999992E-3,,,,,-3.87199998E-6,-3.40000010,
,,,-3.86800002E-6,-2.6000000E-3,,,,,-3.86800002E-6,-3.20000005,
,,,-3.86400006E-6,-2.6000000E-3,,,,,-3.86400006E-6,-2.79999995,
,,,-3.86000011E-6,-1.9999999E-3,,,,,-3.86000011E-6,-2.6000001,
,,,-3.85599969E-6,-1.8000000E-3,,,,,-3.85599969E-6,-2.2000000,
,,,-3.85199974E-6,-1.8000000E-3,,,,,-3.85199974E-6,-2.0000000,
,,,-3.84799978E-6,-1.1999999E-3,,,,,-3.84799978E-6,-1.6000000,
,,,-3.84399982E-6,-999.999931082E-6,,,,,-3.84399982E-6,-1.2000000,
,,,-3.83999986E-6,-799.999979790E-6,,,,,-3.83999986E-6,-800.000011921E-3,
,,,-3.83599991E-6,-199.99999495E-6,,,,,-3.83599991E-6,-600.000023842E-3,
,,,-3.83199995E-6,-199.99999495E-6,,,,,-3.83199995E-6,-200.00000298E-3,
,,,-3.82799999E-6,399.99998990E-6,,,,,-3.82799999E-6,200.00000298E-3,
,,,-3.82400003E-6,799.999979790E-6,,,,,-3.82400003E-6,400.00000596E-3,
,,,-3.82000007E-6,599.999970291E-6,,,,,-3.82000007E-6,800.000011921E-3,
,,,-3.81600012E-6,1.6000000E-3,,,,,-3.81600012E-6,1.2000000,
,,,-3.81199993E-6,1.4000000E-3,,,,,-3.81199993E-6,1.6000000,
,,,-3.80799997E-6,1.6000000E-3,,,,,-3.80799997E-6,1.8000001,
