magnetisem/extension2/termo/balanced/79.8.csv

Record Length,2500,Points,-24.99999937E-6,-2.6000001,,Record Length,2500,Points,-24.99999937E-6,4.96000004,
Sample Interval,19.9999999E-9,s,-24.97999958E-6,-2.4000001,,Sample Interval,19.9999999E-9,s,-24.97999958E-6,4.96000004,
Trigger Point,1.2500000E3,Samples,-24.95999979E-6,-2.4000001,,Trigger Point,1.2500000E3,Samples,-24.95999979E-6,4.96000004,
,,,-24.94000000E-6,-2.2000000,,,,,-24.94000000E-6,4.96000004,
,,,-24.92000021E-6,-2.2000000,,,,,-24.92000021E-6,4.96000004,
,,,-24.89999861E-6,-2.0000000,,,,,-24.89999861E-6,4.96000004,
Source,CH1,,-24.87999882E-6,-2.0000000,,Source,CH2,,-24.87999882E-6,4.96000004,
Vertical Units,Volts,,-24.85999903E-6,-2.0000000,,Vertical Units,Volts,,-24.85999903E-6,4.96000004,
Vertical Scale,5.00000007,,-24.83999924E-6,-1.8000001,,Vertical Scale,2.0000000,,-24.83999924E-6,4.96000004,
Vertical Offset,0,,-24.81999945E-6,-1.6000000,,Vertical Offset,0,,-24.81999945E-6,4.96000004,
Horizontal Units,s,,-24.79999966E-6,-1.4000000,,Horizontal Units,s,,-24.79999966E-6,4.96000004,
Horizontal Scale,4.99999997E-6,,-24.77999988E-6,-1.4000000,,Horizontal Scale,4.99999997E-6,,-24.77999988E-6,4.96000004,
Pt Fmt,Y,,-24.76000009E-6,-1.2000000,,Pt Fmt,Y,,-24.76000009E-6,4.96000004,
Yzero,0.0,,-24.73999848E-6,-1.000000,,Yzero,-1.1200000,,-24.73999848E-6,4.96000004,
Probe Atten,1.000000,,-24.71999869E-6,-800.000011921E-3,,Probe Atten,1.000000,,-24.71999869E-6,4.96000004,
,,,-24.69999890E-6,-600.000023842E-3,,,,,-24.69999890E-6,4.96000004,
Note,TBS 1052B-EDU - 10:24:24   30-Nov-22,,-24.67999911E-6,-600.000023842E-3,,Note,TBS 1052B-EDU - 10:24:24   30-Nov-22,,-24.67999911E-6,4.96000004,
,,,-24.65999933E-6,-400.00000596E-3,,,,,-24.65999933E-6,4.96000004,
,,,-24.63999954E-6,-200.00000298E-3,,,,,-24.63999954E-6,4.96000004,
,,,-24.61999975E-6,0.0,,,,,-24.61999975E-6,4.96000004,
,,,-24.59999996E-6,200.00000298E-3,,,,,-24.59999996E-6,4.23999977,
,,,-24.58000017E-6,400.00000596E-3,,,,,-24.58000017E-6,399.99997616E-3,
,,,-24.55999856E-6,600.000023842E-3,,,,,-24.55999856E-6,0.0,
,,,-24.53999878E-6,600.000023842E-3,,,,,-24.53999878E-6,0.0,
,,,-24.51999899E-6,800.000011921E-3,,,,,-24.51999899E-6,0.0,
,,,-24.49999920E-6,1.000000,,,,,-24.49999920E-6,0.0,
,,,-24.47999941E-6,1.2000000,,,,,-24.47999941E-6,0.0,
,,,-24.45999962E-6,1.4000000,,,,,-24.45999962E-6,0.0,
,,,-24.43999983E-6,1.6000000,,,,,-24.43999983E-6,0.0,
,,,-24.42000005E-6,1.8000001,,,,,-24.42000005E-6,0.0,
,,,-24.40000026E-6,1.8000001,,,,,-24.40000026E-6,0.0,
,,,-24.37999865E-6,2.0000000,,,,,-24.37999865E-6,0.0,
,,,-24.35999886E-6,2.2000000,,,,,-24.35999886E-6,0.0,
,,,-24.33999907E-6,2.2000000,,,,,-24.33999907E-6,0.0,
,,,-24.31999928E-6,2.4000001,,,,,-24.31999928E-6,0.0,
,,,-24.29999950E-6,2.4000001,,,,,-24.29999950E-6,0.0,
,,,-24.27999971E-6,2.6000001,,,,,-24.27999971E-6,0.0,
,,,-24.25999992E-6,2.79999995,,,,,-24.25999992E-6,0.0,
,,,-24.24000013E-6,2.79999995,,,,,-24.24000013E-6,0.0,
,,,-24.21999852E-6,2.79999995,,,,,-24.21999852E-6,0.0,
,,,-24.19999873E-6,3.00000000,,,,,-24.19999873E-6,0.0,
,,,-24.17999895E-6,3.00000000,,,,,-24.17999895E-6,0.0,
,,,-24.15999916E-6,3.00000000,,,,,-24.15999916E-6,0.0,
,,,-24.13999937E-6,3.00000000,,,,,-24.13999937E-6,0.0,
,,,-24.11999958E-6,3.00000000,,,,,-24.11999958E-6,0.0,
,,,-24.09999979E-6,3.00000000,,,,,-24.09999979E-6,0.0,
,,,-24.08000000E-6,3.00000000,,,,,-24.08000000E-6,0.0,
,,,-24.06000021E-6,3.00000000,,,,,-24.06000021E-6,0.0,
,,,-24.03999861E-6,3.00000000,,,,,-24.03999861E-6,0.0,
,,,-24.01999882E-6,2.79999995,,,,,-24.01999882E-6,0.0,
,,,-23.99999903E-6,2.79999995,,,,,-23.99999903E-6,0.0,
,,,-23.97999924E-6,2.79999995,,,,,-23.97999924E-6,0.0,
,,,-23.95999945E-6,2.79999995,,,,,-23.95999945E-6,0.0,
,,,-23.93999966E-6,2.6000001,,,,,-23.93999966E-6,0.0,
,,,-23.91999988E-6,2.4000001,,,,,-23.91999988E-6,0.0,
,,,-23.90000009E-6,2.4000001,,,,,-23.90000009E-6,0.0,
,,,-23.87999848E-6,2.4000001,,,,,-23.87999848E-6,0.0,
,,,-23.85999869E-6,2.2000000,,,,,-23.85999869E-6,0.0,
,,,-23.83999890E-6,2.0000000,,,,,-23.83999890E-6,0.0,
,,,-23.81999911E-6,1.8000001,,,,,-23.81999911E-6,0.0,
,,,-23.79999933E-6,1.8000001,,,,,-23.79999933E-6,0.0,
,,,-23.77999954E-6,1.6000000,,,,,-23.77999954E-6,0.0,
,,,-23.75999975E-6,1.4000000,,,,,-23.75999975E-6,0.0,
,,,-23.73999996E-6,1.4000000,,,,,-23.73999996E-6,0.0,
,,,-23.72000017E-6,1.000000,,,,,-23.72000017E-6,0.0,
,,,-23.69999856E-6,1.000000,,,,,-23.69999856E-6,0.0,
,,,-23.67999878E-6,800.000011921E-3,,,,,-23.67999878E-6,0.0,
,,,-23.65999899E-6,600.000023842E-3,,,,,-23.65999899E-6,0.0,
,,,-23.63999920E-6,400.00000596E-3,,,,,-23.63999920E-6,0.0,
,,,-23.61999941E-6,400.00000596E-3,,,,,-23.61999941E-6,0.0,
,,,-23.59999962E-6,0.0,,,,,-23.59999962E-6,2.1599998,
,,,-23.57999983E-6,0.0,,,,,-23.57999983E-6,4.79999971,
,,,-23.56000005E-6,-200.00000298E-3,,,,,-23.56000005E-6,4.96000004,
,,,-23.54000026E-6,-400.00000596E-3,,,,,-23.54000026E-6,4.96000004,
,,,-23.51999865E-6,-600.000023842E-3,,,,,-23.51999865E-6,4.96000004,
,,,-23.49999886E-6,-800.000011921E-3,,,,,-23.49999886E-6,4.96000004,
,,,-23.47999907E-6,-1.000000,,,,,-23.47999907E-6,4.96000004,
,,,-23.45999928E-6,-1.2000000,,,,,-23.45999928E-6,4.96000004,
,,,-23.43999950E-6,-1.2000000,,,,,-23.43999950E-6,4.96000004,
,,,-23.41999971E-6,-1.4000000,,,,,-23.41999971E-6,4.96000004,
,,,-23.39999992E-6,-1.6000000,,,,,-23.39999992E-6,4.96000004,
,,,-23.38000013E-6,-1.6000000,,,,,-23.38000013E-6,4.96000004,
,,,-23.35999852E-6,-1.8000001,,,,,-23.35999852E-6,4.96000004,
,,,-23.33999873E-6,-2.0000000,,,,,-23.33999873E-6,4.96000004,
,,,-23.31999895E-6,-2.0000000,,,,,-23.31999895E-6,4.96000004,
,,,-23.29999916E-6,-2.2000000,,,,,-23.29999916E-6,4.96000004,
,,,-23.27999937E-6,-2.2000000,,,,,-23.27999937E-6,4.96000004,
,,,-23.25999958E-6,-2.4000001,,,,,-23.25999958E-6,4.96000004,
,,,-23.23999979E-6,-2.4000001,,,,,-23.23999979E-6,4.96000004,
,,,-23.22000000E-6,-2.6000001,,,,,-23.22000000E-6,4.96000004,
,,,-23.20000021E-6,-2.6000001,,,,,-23.20000021E-6,4.96000004,
,,,-23.17999861E-6,-2.6000001,,,,,-23.17999861E-6,4.96000004,
,,,-23.15999882E-6,-2.6000001,,,,,-23.15999882E-6,4.96000004,
,,,-23.13999903E-6,-2.6000001,,,,,-23.13999903E-6,4.96000004,
,,,-23.11999924E-6,-2.6000001,,,,,-23.11999924E-6,4.96000004,
,,,-23.09999945E-6,-2.6000001,,,,,-23.09999945E-6,4.96000004,
,,,-23.07999966E-6,-2.6000001,,,,,-23.07999966E-6,4.96000004,
,,,-23.05999988E-6,-2.6000001,,,,,-23.05999988E-6,4.96000004,
,,,-23.04000009E-6,-2.6000001,,,,,-23.04000009E-6,4.96000004,
,,,-23.01999848E-6,-2.4000001,,,,,-23.01999848E-6,4.96000004,
,,,-22.99999869E-6,-2.4000001,,,,,-22.99999869E-6,4.96000004,
,,,-22.97999890E-6,-2.4000001,,,,,-22.97999890E-6,4.96000004,
,,,-22.95999911E-6,-2.2000000,,,,,-22.95999911E-6,4.96000004,
,,,-22.93999933E-6,-2.2000000,,,,,-22.93999933E-6,4.96000004,
,,,-22.91999954E-6,-2.2000000,,,,,-22.91999954E-6,4.96000004,
,,,-22.89999975E-6,-2.0000000,,,,,-22.89999975E-6,4.96000004,
,,,-22.87999996E-6,-1.8000001,,,,,-22.87999996E-6,4.96000004,
,,,-22.86000017E-6,-1.8000001,,,,,-22.86000017E-6,4.96000004,
,,,-22.83999856E-6,-1.6000000,,,,,-22.83999856E-6,4.96000004,
,,,-22.81999878E-6,-1.4000000,,,,,-22.81999878E-6,4.96000004,
,,,-22.79999899E-6,-1.4000000,,,,,-22.79999899E-6,4.96000004,
,,,-22.77999920E-6,-1.2000000,,,,,-22.77999920E-6,4.96000004,
,,,-22.75999941E-6,-1.000000,,,,,-22.75999941E-6,4.96000004,
,,,-22.73999962E-6,-800.000011921E-3,,,,,-22.73999962E-6,4.96000004,
,,,-22.71999983E-6,-600.000023842E-3,,,,,-22.71999983E-6,4.96000004,
,,,-22.70000005E-6,-400.00000596E-3,,,,,-22.70000005E-6,4.96000004,
,,,-22.68000026E-6,-400.00000596E-3,,,,,-22.68000026E-6,4.96000004,
,,,-22.65999865E-6,0.0,,,,,-22.65999865E-6,4.96000004,
,,,-22.63999886E-6,200.00000298E-3,,,,,-22.63999886E-6,4.96000004,
,,,-22.61999907E-6,200.00000298E-3,,,,,-22.61999907E-6,4.07999992,
,,,-22.59999928E-6,400.00000596E-3,,,,,-22.59999928E-6,239.99999464E-3,
,,,-22.57999950E-6,600.000023842E-3,,,,,-22.57999950E-6,0.0,
,,,-22.55999971E-6,800.000011921E-3,,,,,-22.55999971E-6,0.0,
,,,-22.53999992E-6,800.000011921E-3,,,,,-22.53999992E-6,0.0,
,,,-22.52000013E-6,1.2000000,,,,,-22.52000013E-6,0.0,
,,,-22.49999852E-6,1.2000000,,,,,-22.49999852E-6,0.0,
,,,-22.47999873E-6,1.4000000,,,,,-22.47999873E-6,0.0,
,,,-22.45999895E-6,1.6000000,,,,,-22.45999895E-6,0.0,
,,,-22.43999916E-6,1.8000001,,,,,-22.43999916E-6,0.0,
,,,-22.41999937E-6,1.8000001,,,,,-22.41999937E-6,0.0,
,,,-22.39999958E-6,2.0000000,,,,,-22.39999958E-6,0.0,
,,,-22.37999979E-6,2.2000000,,,,,-22.37999979E-6,0.0,
,,,-22.36000000E-6,2.2000000,,,,,-22.36000000E-6,0.0,
,,,-22.34000021E-6,2.4000001,,,,,-22.34000021E-6,0.0,
,,,-22.31999861E-6,2.6000001,,,,,-22.31999861E-6,0.0,
,,,-22.29999882E-6,2.6000001,,,,,-22.29999882E-6,0.0,
,,,-22.27999903E-6,2.79999995,,,,,-22.27999903E-6,0.0,
,,,-22.25999924E-6,2.79999995,,,,,-22.25999924E-6,0.0,
,,,-22.23999945E-6,2.79999995,,,,,-22.23999945E-6,0.0,
,,,-22.21999966E-6,2.79999995,,,,,-22.21999966E-6,0.0,
,,,-22.19999988E-6,3.00000000,,,,,-22.19999988E-6,0.0,
,,,-22.18000009E-6,3.00000000,,,,,-22.18000009E-6,0.0,
,,,-22.15999848E-6,3.00000000,,,,,-22.15999848E-6,0.0,
,,,-22.13999869E-6,3.00000000,,,,,-22.13999869E-6,0.0,
,,,-22.11999890E-6,3.00000000,,,,,-22.11999890E-6,0.0,
,,,-22.09999911E-6,3.00000000,,,,,-22.09999911E-6,0.0,
,,,-22.07999933E-6,3.00000000,,,,,-22.07999933E-6,0.0,
,,,-22.05999954E-6,3.00000000,,,,,-22.05999954E-6,0.0,
,,,-22.03999975E-6,2.79999995,,,,,-22.03999975E-6,0.0,
,,,-22.01999996E-6,2.79999995,,,,,-22.01999996E-6,0.0,
,,,-22.00000017E-6,2.6000001,,,,,-22.00000017E-6,0.0,
,,,-21.97999856E-6,2.6000001,,,,,-21.97999856E-6,0.0,
,,,-21.95999878E-6,2.6000001,,,,,-21.95999878E-6,0.0,
,,,-21.93999899E-6,2.6000001,,,,,-21.93999899E-6,0.0,
,,,-21.91999920E-6,2.4000001,,,,,-21.91999920E-6,0.0,
,,,-21.89999941E-6,2.2000000,,,,,-21.89999941E-6,0.0,
,,,-21.87999962E-6,2.2000000,,,,,-21.87999962E-6,0.0,
,,,-21.85999983E-6,2.0000000,,,,,-21.85999983E-6,0.0,
,,,-21.84000004E-6,1.8000001,,,,,-21.84000004E-6,0.0,
,,,-21.82000026E-6,1.8000001,,,,,-21.82000026E-6,0.0,
,,,-21.79999865E-6,1.6000000,,,,,-21.79999865E-6,0.0,
,,,-21.77999886E-6,1.4000000,,,,,-21.77999886E-6,0.0,
,,,-21.75999907E-6,1.2000000,,,,,-21.75999907E-6,0.0,
,,,-21.73999928E-6,1.000000,,,,,-21.73999928E-6,0.0,
,,,-21.71999949E-6,800.000011921E-3,,,,,-21.71999949E-6,0.0,
,,,-21.69999971E-6,800.000011921E-3,,,,,-21.69999971E-6,0.0,
,,,-21.67999992E-6,600.000023842E-3,,,,,-21.67999992E-6,0.0,
,,,-21.66000013E-6,400.00000596E-3,,,,,-21.66000013E-6,0.0,
,,,-21.63999852E-6,200.00000298E-3,,,,,-21.63999852E-6,0.0,
,,,-21.61999873E-6,0.0,,,,,-21.61999873E-6,3.03999996,
,,,-21.59999895E-6,-200.00000298E-3,,,,,-21.59999895E-6,4.88000011,
,,,-21.57999916E-6,-400.00000596E-3,,,,,-21.57999916E-6,4.96000004,
,,,-21.55999937E-6,-400.00000596E-3,,,,,-21.55999937E-6,4.96000004,
,,,-21.53999958E-6,-600.000023842E-3,,,,,-21.53999958E-6,4.96000004,
,,,-21.51999979E-6,-800.000011921E-3,,,,,-21.51999979E-6,4.96000004,
,,,-21.50000000E-6,-1.000000,,,,,-21.50000000E-6,4.96000004,
,,,-21.48000021E-6,-1.2000000,,,,,-21.48000021E-6,4.96000004,
,,,-21.45999861E-6,-1.2000000,,,,,-21.45999861E-6,4.96000004,
,,,-21.43999882E-6,-1.4000000,,,,,-21.43999882E-6,4.96000004,
,,,-21.41999903E-6,-1.6000000,,,,,-21.41999903E-6,4.96000004,
,,,-21.39999924E-6,-1.8000001,,,,,-21.39999924E-6,4.96000004,
,,,-21.37999945E-6,-1.8000001,,,,,-21.37999945E-6,4.96000004,
,,,-21.35999966E-6,-2.0000000,,,,,-21.35999966E-6,4.96000004,
,,,-21.33999988E-6,-2.2000000,,,,,-21.33999988E-6,4.96000004,
,,,-21.32000009E-6,-2.2000000,,,,,-21.32000009E-6,4.96000004,
,,,-21.30000030E-6,-2.2000000,,,,,-21.30000030E-6,4.96000004,
,,,-21.27999869E-6,-2.4000001,,,,,-21.27999869E-6,4.96000004,
,,,-21.25999890E-6,-2.4000001,,,,,-21.25999890E-6,4.96000004,
,,,-21.23999911E-6,-2.4000001,,,,,-21.23999911E-6,4.96000004,
,,,-21.21999933E-6,-2.6000001,,,,,-21.21999933E-6,4.96000004,
,,,-21.19999954E-6,-2.6000001,,,,,-21.19999954E-6,4.96000004,
,,,-21.17999975E-6,-2.6000001,,,,,-21.17999975E-6,4.96000004,
,,,-21.15999996E-6,-2.6000001,,,,,-21.15999996E-6,4.96000004,
,,,-21.14000017E-6,-2.6000001,,,,,-21.14000017E-6,4.96000004,
,,,-21.11999856E-6,-2.6000001,,,,,-21.11999856E-6,4.96000004,
,,,-21.09999878E-6,-2.6000001,,,,,-21.09999878E-6,4.96000004,
,,,-21.07999899E-6,-2.6000001,,,,,-21.07999899E-6,4.96000004,
,,,-21.05999920E-6,-2.6000001,,,,,-21.05999920E-6,4.96000004,
,,,-21.03999941E-6,-2.4000001,,,,,-21.03999941E-6,4.96000004,
,,,-21.01999962E-6,-2.4000001,,,,,-21.01999962E-6,4.96000004,
,,,-20.99999983E-6,-2.4000001,,,,,-20.99999983E-6,4.96000004,
,,,-20.98000004E-6,-2.2000000,,,,,-20.98000004E-6,4.96000004,
,,,-20.96000026E-6,-2.2000000,,,,,-20.96000026E-6,4.96000004,
,,,-20.93999865E-6,-2.0000000,,,,,-20.93999865E-6,4.96000004,
,,,-20.91999886E-6,-2.0000000,,,,,-20.91999886E-6,4.96000004,
,,,-20.89999907E-6,-1.8000001,,,,,-20.89999907E-6,4.96000004,
,,,-20.87999928E-6,-1.8000001,,,,,-20.87999928E-6,4.96000004,
,,,-20.85999949E-6,-1.6000000,,,,,-20.85999949E-6,4.96000004,
,,,-20.83999971E-6,-1.4000000,,,,,-20.83999971E-6,4.96000004,
,,,-20.81999992E-6,-1.2000000,,,,,-20.81999992E-6,4.96000004,
,,,-20.80000013E-6,-1.000000,,,,,-20.80000013E-6,4.96000004,
,,,-20.77999852E-6,-1.000000,,,,,-20.77999852E-6,4.96000004,
,,,-20.75999873E-6,-800.000011921E-3,,,,,-20.75999873E-6,4.96000004,
,,,-20.73999894E-6,-600.000023842E-3,,,,,-20.73999894E-6,4.96000004,
,,,-20.71999916E-6,-400.00000596E-3,,,,,-20.71999916E-6,4.96000004,
,,,-20.69999937E-6,-200.00000298E-3,,,,,-20.69999937E-6,4.96000004,
,,,-20.67999958E-6,0.0,,,,,-20.67999958E-6,4.96000004,
,,,-20.65999979E-6,200.00000298E-3,,,,,-20.65999979E-6,4.96000004,
,,,-20.64000000E-6,200.00000298E-3,,,,,-20.64000000E-6,3.35999990,
,,,-20.62000021E-6,400.00000596E-3,,,,,-20.62000021E-6,159.99999642E-3,
,,,-20.59999861E-6,600.000023842E-3,,,,,-20.59999861E-6,0.0,
,,,-20.57999882E-6,800.000011921E-3,,,,,-20.57999882E-6,0.0,
,,,-20.55999903E-6,1.000000,,,,,-20.55999903E-6,0.0,
,,,-20.53999924E-6,1.2000000,,,,,-20.53999924E-6,0.0,
,,,-20.51999945E-6,1.2000000,,,,,-20.51999945E-6,0.0,
,,,-20.49999966E-6,1.4000000,,,,,-20.49999966E-6,0.0,
,,,-20.47999988E-6,1.6000000,,,,,-20.47999988E-6,0.0,
,,,-20.46000009E-6,1.8000001,,,,,-20.46000009E-6,0.0,
,,,-20.44000030E-6,1.8000001,,,,,-20.44000030E-6,0.0,
,,,-20.41999869E-6,2.0000000,,,,,-20.41999869E-6,0.0,
,,,-20.39999890E-6,2.2000000,,,,,-20.39999890E-6,0.0,
,,,-20.37999911E-6,2.2000000,,,,,-20.37999911E-6,0.0,
,,,-20.35999933E-6,2.4000001,,,,,-20.35999933E-6,0.0,
,,,-20.33999954E-6,2.4000001,,,,,-20.33999954E-6,0.0,
,,,-20.31999975E-6,2.6000001,,,,,-20.31999975E-6,0.0,
,,,-20.29999996E-6,2.79999995,,,,,-20.29999996E-6,0.0,
,,,-20.28000017E-6,2.79999995,,,,,-20.28000017E-6,0.0,
,,,-20.25999856E-6,2.79999995,,,,,-20.25999856E-6,0.0,
,,,-20.23999878E-6,2.79999995,,,,,-20.23999878E-6,0.0,
,,,-20.21999899E-6,3.00000000,,,,,-20.21999899E-6,0.0,
,,,-20.19999920E-6,3.00000000,,,,,-20.19999920E-6,0.0,
,,,-20.17999941E-6,3.00000000,,,,,-20.17999941E-6,0.0,
,,,-20.15999962E-6,3.00000000,,,,,-20.15999962E-6,0.0,
,,,-20.13999983E-6,3.00000000,,,,,-20.13999983E-6,0.0,
,,,-20.12000004E-6,3.00000000,,,,,-20.12000004E-6,0.0,
,,,-20.10000026E-6,3.00000000,,,,,-20.10000026E-6,0.0,
,,,-20.0799986E-6,3.00000000,,,,,-20.0799986E-6,0.0,
,,,-20.0599989E-6,3.00000000,,,,,-20.0599989E-6,0.0,
,,,-20.0399991E-6,2.79999995,,,,,-20.0399991E-6,0.0,
,,,-20.0199993E-6,2.79999995,,,,,-20.0199993E-6,0.0,
,,,-19.9999995E-6,2.6000001,,,,,-19.9999995E-6,0.0,
,,,-19.9799997E-6,2.6000001,,,,,-19.9799997E-6,0.0,
,,,-19.9599999E-6,2.4000001,,,,,-19.9599999E-6,0.0,
,,,-19.9400001E-6,2.4000001,,,,,-19.9400001E-6,0.0,
,,,-19.9199985E-6,2.2000000,,,,,-19.9199985E-6,0.0,
,,,-19.8999987E-6,2.2000000,,,,,-19.8999987E-6,0.0,
,,,-19.8799989E-6,2.0000000,,,,,-19.8799989E-6,0.0,
,,,-19.8599992E-6,1.8000001,,,,,-19.8599992E-6,0.0,
,,,-19.8399994E-6,1.8000001,,,,,-19.8399994E-6,0.0,
,,,-19.8199996E-6,1.6000000,,,,,-19.8199996E-6,0.0,
,,,-19.7999998E-6,1.4000000,,,,,-19.7999998E-6,0.0,
,,,-19.7800000E-6,1.2000000,,,,,-19.7800000E-6,0.0,
,,,-19.7600002E-6,1.000000,,,,,-19.7600002E-6,0.0,
,,,-19.7399986E-6,1.000000,,,,,-19.7399986E-6,0.0,
,,,-19.7199988E-6,800.000011921E-3,,,,,-19.7199988E-6,0.0,
,,,-19.6999990E-6,600.000023842E-3,,,,,-19.6999990E-6,0.0,
,,,-19.6799992E-6,400.00000596E-3,,,,,-19.6799992E-6,0.0,
,,,-19.6599995E-6,200.00000298E-3,,,,,-19.6599995E-6,239.99999464E-3,
,,,-19.6399997E-6,0.0,,,,,-19.6399997E-6,4.15999985,
,,,-19.6199999E-6,-200.00000298E-3,,,,,-19.6199999E-6,4.96000004,
,,,-19.6000001E-6,-200.00000298E-3,,,,,-19.6000001E-6,4.96000004,
,,,-19.5800003E-6,-600.000023842E-3,,,,,-19.5800003E-6,4.96000004,
,,,-19.5599987E-6,-800.000011921E-3,,,,,-19.5599987E-6,4.96000004,
,,,-19.5399989E-6,-800.000011921E-3,,,,,-19.5399989E-6,4.96000004,
,,,-19.5199991E-6,-1.000000,,,,,-19.5199991E-6,4.96000004,
,,,-19.4999993E-6,-1.2000000,,,,,-19.4999993E-6,4.96000004,
,,,-19.4799995E-6,-1.2000000,,,,,-19.4799995E-6,4.96000004,
,,,-19.4599997E-6,-1.4000000,,,,,-19.4599997E-6,4.96000004,
,,,-19.4400000E-6,-1.6000000,,,,,-19.4400000E-6,4.96000004,
,,,-19.4200002E-6,-1.8000001,,,,,-19.4200002E-6,4.96000004,
,,,-19.3999986E-6,-1.8000001,,,,,-19.3999986E-6,4.96000004,
,,,-19.3799988E-6,-2.0000000,,,,,-19.3799988E-6,4.96000004,
,,,-19.3599990E-6,-2.2000000,,,,,-19.3599990E-6,4.96000004,
,,,-19.3399992E-6,-2.2000000,,,,,-19.3399992E-6,4.96000004,
,,,-19.3199994E-6,-2.2000000,,,,,-19.3199994E-6,4.96000004,
,,,-19.2999996E-6,-2.4000001,,,,,-19.2999996E-6,4.96000004,
,,,-19.2799998E-6,-2.4000001,,,,,-19.2799998E-6,4.96000004,
,,,-19.2600000E-6,-2.4000001,,,,,-19.2600000E-6,4.96000004,
,,,-19.2400003E-6,-2.6000001,,,,,-19.2400003E-6,4.96000004,
,,,-19.2199986E-6,-2.6000001,,,,,-19.2199986E-6,4.96000004,
,,,-19.1999989E-6,-2.6000001,,,,,-19.1999989E-6,4.96000004,
,,,-19.1799991E-6,-2.6000001,,,,,-19.1799991E-6,4.96000004,
,,,-19.1599993E-6,-2.6000001,,,,,-19.1599993E-6,4.96000004,
,,,-19.1399995E-6,-2.6000001,,,,,-19.1399995E-6,4.96000004,
,,,-19.1199997E-6,-2.6000001,,,,,-19.1199997E-6,4.96000004,
,,,-19.0999999E-6,-2.6000001,,,,,-19.0999999E-6,4.96000004,
,,,-19.0800001E-6,-2.6000001,,,,,-19.0800001E-6,4.96000004,
,,,-19.0599985E-6,-2.4000001,,,,,-19.0599985E-6,4.96000004,
,,,-19.0399987E-6,-2.4000001,,,,,-19.0399987E-6,4.96000004,
,,,-19.0199989E-6,-2.4000001,,,,,-19.0199989E-6,4.96000004,
,,,-18.9999992E-6,-2.2000000,,,,,-18.9999992E-6,4.96000004,
,,,-18.9799994E-6,-2.2000000,,,,,-18.9799994E-6,4.96000004,
,,,-18.9599996E-6,-2.0000000,,,,,-18.9599996E-6,4.96000004,
,,,-18.9399998E-6,-1.8000001,,,,,-18.9399998E-6,4.96000004,
,,,-18.9200000E-6,-1.8000001,,,,,-18.9200000E-6,4.96000004,
,,,-18.9000002E-6,-1.6000000,,,,,-18.9000002E-6,4.96000004,
,,,-18.8799986E-6,-1.6000000,,,,,-18.8799986E-6,4.96000004,
,,,-18.8599988E-6,-1.4000000,,,,,-18.8599988E-6,4.96000004,
,,,-18.8399990E-6,-1.2000000,,,,,-18.8399990E-6,4.96000004,
,,,-18.8199992E-6,-1.000000,,,,,-18.8199992E-6,4.96000004,
,,,-18.7999995E-6,-800.000011921E-3,,,,,-18.7999995E-6,4.96000004,
,,,-18.7799997E-6,-800.000011921E-3,,,,,-18.7799997E-6,4.96000004,
,,,-18.7599999E-6,-600.000023842E-3,,,,,-18.7599999E-6,4.96000004,
,,,-18.7400001E-6,-400.00000596E-3,,,,,-18.7400001E-6,4.96000004,
,,,-18.7200003E-6,-200.00000298E-3,,,,,-18.7200003E-6,4.96000004,
,,,-18.6999987E-6,0.0,,,,,-18.6999987E-6,4.96000004,
,,,-18.6799989E-6,200.00000298E-3,,,,,-18.6799989E-6,4.96000004,
,,,-18.6599991E-6,200.00000298E-3,,,,,-18.6599991E-6,2.4800000,
,,,-18.6399993E-6,600.000023842E-3,,,,,-18.6399993E-6,79.999998212E-3,
,,,-18.6199995E-6,600.000023842E-3,,,,,-18.6199995E-6,0.0,
,,,-18.5999997E-6,800.000011921E-3,,,,,-18.5999997E-6,0.0,
,,,-18.5800000E-6,1.000000,,,,,-18.5800000E-6,0.0,
,,,-18.5600002E-6,1.2000000,,,,,-18.5600002E-6,0.0,
,,,-18.5399986E-6,1.4000000,,,,,-18.5399986E-6,0.0,
,,,-18.5199988E-6,1.6000000,,,,,-18.5199988E-6,0.0,
,,,-18.4999990E-6,1.6000000,,,,,-18.4999990E-6,0.0,
,,,-18.4799992E-6,1.8000001,,,,,-18.4799992E-6,0.0,
,,,-18.4599994E-6,2.0000000,,,,,-18.4599994E-6,0.0,
,,,-18.4399996E-6,2.0000000,,,,,-18.4399996E-6,0.0,
